9.337840431472375258e+01 3.703976415816145504e+02 1.042021667538750762e+02
1.000480995081907878e+02 4.058181817189422986e+02 1.431313295792712097e+02
1.067177552200225961e+02 3.294842272777380572e+02 1.232637714879395787e+02
1.133873688182344210e+02 3.660743567039328354e+02 1.331976363842447029e+02
1.200569376707849614e+02 3.616352845771390321e+02 2.532384441181114312e+02
1.267264591457304732e+02 4.584126188934603192e+02 2.765906524881473842e+02
1.333959306110972705e+02 6.877288793849537569e+02 4.458189287158786556e+02
1.400653494349022878e+02 1.264192846876612748e+03 7.196107780284196451e+02
1.467347129852310559e+02 1.307306491814066703e+03 7.091382907966155926e+02
1.534040186301933772e+02 9.929427963489284821e+02 5.047589461170728100e+02
1.600732637379087180e+02 5.875955649983475269e+02 3.014542203980224144e+02
1.667424456764764216e+02 5.126614939462375560e+02 4.007248843577108914e+02
1.734115618141142932e+02 5.220329230296345031e+02 4.166094269471070675e+02
1.800806095189884388e+02 5.142902154474071494e+02 2.323500607169893328e+02
1.867495861592966548e+02 3.346126244469330118e+02 1.817208724120337422e+02
1.934184891033345082e+02 2.281608868751355601e+02 8.331541270948154931e+01
2.000873157193286431e+02 1.561164704068795288e+02 7.127171962415013695e+01
2.067560633756200446e+02 1.197736356259253228e+02 3.443338387414986101e+01
2.134247294405192577e+02 7.917997740932011652e+01 2.705149803941606379e+01
2.200933112824151578e+02 7.467730153814390803e+01 2.263274077985639465e+01
2.267618062697124799e+02 5.905322685468036781e+01 1.771796063873857463e+01
2.334302117708197386e+02 6.136287973927638006e+01 1.631244053159026919e+01
2.400985251542435606e+02 4.852108310361943921e+01 1.434146743883217745e+01
2.467667437884640265e+02 5.275782164789345785e+01 1.383558068274206576e+01
2.534348650420397178e+02 4.029229757063678363e+01 1.128876104632965394e+01
2.601028862835518680e+02 4.599100358553349110e+01 1.128025103379781058e+01
2.667708048816387532e+02 3.570684671067652260e+01 9.415624307376759816e+00
2.734386182049328795e+02 3.950121135095833580e+01 1.142560618312685428e+01
2.801063236221641546e+02 3.228808043655446625e+01 7.405295260146711023e+00
2.867739185020837454e+02 3.779395444237896129e+01 1.048895251725765299e+01
2.934414002134629413e+02 3.211103999801555631e+01 7.989325581498985862e+00
3.001087661251536929e+02 3.586299395316027727e+01 9.481309242093251655e+00
3.067760136060294371e+02 3.067045414593717467e+01 7.874407641455226425e+00
3.134431400250231263e+02 3.316263091733500801e+01 8.516786906330983342e+00
3.201101427511105157e+02 2.929879637868280184e+01 7.639814978586840333e+00
3.267770191533253978e+02 3.267224590362470593e+01 8.551253135092320434e+00
3.334437666007248140e+02 2.868305784325950114e+01 7.507323529550530949e+00
3.401103824624506160e+02 3.373065278538884826e+01 1.030579346074952873e+01
3.467768641076751237e+02 2.889203640664480233e+01 8.231039285024440488e+00
3.534432089056329005e+02 3.225638161687651007e+01 9.060523041371073560e+00
3.601094142256048372e+02 2.879450836383065848e+01 8.692992827733119654e+00
3.667754774369299753e+02 3.148015632447308221e+01 8.280713892606053506e+00
3.734413959090151138e+02 2.875690417810167432e+01 6.911342012479633645e+00
3.801071670112945071e+02 3.113210697325632381e+01 7.503989954148814867e+00
3.867727881132904599e+02 2.776959337394836780e+01 7.448611085539784682e+00
3.934382565845795625e+02 3.100779580431564497e+01 9.030764668696045661e+00
4.001035697947866652e+02 2.813264134415977580e+01 9.573443399231942763e+00
4.067687251136013060e+02 3.141665027281282008e+01 1.075493501639052418e+01
4.134337199107779384e+02 2.816745141230587990e+01 8.893544202385493591e+00
4.200985515561353054e+02 3.030460833289327738e+01 8.970112110566546448e+00
4.267632174195638868e+02 2.879381780709064387e+01 9.288050567844313932e+00
4.334277148709957714e+02 3.128360886295523002e+01 9.926167672278996434e+00
4.400920412804624675e+02 3.023384540589324843e+01 1.060342005219890460e+01
4.467561940180291344e+02 3.277527576953487909e+01 1.076566303588824347e+01
4.534201704538568265e+02 3.075081871305537717e+01 1.158616188124153368e+01
4.600839679581663404e+02 3.260673040551250779e+01 1.122024563459073221e+01
4.667475839012366805e+02 3.117994305345882822e+01 1.022751099706580291e+01
4.734110156534374028e+02 3.400470031966392526e+01 1.126899654065802459e+01
4.800742605852057636e+02 3.232751016629867280e+01 1.100142628077420248e+01
4.867373160670450147e+02 3.517812513198623492e+01 1.186090651679901242e+01
4.934001794695350327e+02 3.279502053950314178e+01 1.114909117263938931e+01
5.000628481633488036e+02 3.619335872493173412e+01 1.348780789781263323e+01
5.067253195192053568e+02 3.539239984520837368e+01 1.361412140410194738e+01
5.133875909079293933e+02 3.798298925925891467e+01 1.535473563297723487e+01
5.200496597004049590e+02 3.614350475765031945e+01 1.419700026967690398e+01
5.267115232676089818e+02 4.028020407455499452e+01 1.454317177730608357e+01
5.333731789806014376e+02 3.893650743430911376e+01 1.499735418063411174e+01
5.400346242105096053e+02 4.295793192473961852e+01 1.737400195048759954e+01
5.466958563285487571e+02 4.254714037822868278e+01 1.578965532240418668e+01
5.533568727060296624e+02 4.820381418569589016e+01 2.119483896021724334e+01
5.600176707143421027e+02 4.494741165601500654e+01 1.706949529241073193e+01
5.666782477249461181e+02 5.510576204900289099e+01 2.642461341576624179e+01
5.733386011094181640e+02 5.679723976360653381e+01 2.550740231769638200e+01
5.799987282394010890e+02 8.004134143264508339e+01 5.686910740295576261e+01
5.866586264866288047e+02 8.543488867734143355e+01 5.454475748237369714e+01
5.933182932229415201e+02 1.146907688261731550e+02 7.447088650518922748e+01
5.999777258202501571e+02 1.385181640632526978e+02 7.963781526438494041e+01
6.066369216505727309e+02 2.349919138807510990e+02 1.777371572745848312e+02
6.132958780860092247e+02 3.331865612038346285e+02 2.133932028065544841e+02
6.199545924987667149e+02 6.454310128886413622e+02 6.128118129656629662e+02
6.266130622611390208e+02 8.870511399163540318e+02 1.036076883792917670e+03
6.332712847455222800e+02 7.325880434019585437e+02 4.632393400960286272e+02
6.399292573243976676e+02 6.803264706967312350e+02 4.149156171159795576e+02
6.465869773703675492e+02 7.328195798994277084e+02 4.326522143635689304e+02
6.532444422561088686e+02 9.497745684932427821e+02 6.523633705747802196e+02
6.599016493544120294e+02 9.620412297932376759e+02 5.111507897277523966e+02
6.665585960381747554e+02 7.901128603250643891e+02 4.418052460861855479e+02
6.732152796803860610e+02 5.604058820736662483e+02 2.507053263654480588e+02
6.798716976541442136e+02 5.550452233950345544e+02 3.109083416754456266e+02
6.865278473326553694e+02 7.050549811356770533e+02 4.504903502884656632e+02
6.931837260892222048e+02 6.940880859820621254e+02 3.994989677023408490e+02
6.998393312972604008e+02 5.637894309543379450e+02 2.338332493504675256e+02
7.064946603302972790e+02 4.542222023439230156e+02 2.316419803626054943e+02
7.131497105619599779e+02 2.907541264744203318e+02 1.127745660262956164e+02
7.198044793659961442e+02 2.183369602223368986e+02 8.904164857159578617e+01
7.264589641162536964e+02 1.939090972627996337e+02 6.769815698457345832e+01
7.331131621867042440e+02 2.059424204918171881e+02 1.075021734813223304e+02
7.397670709514198961e+02 2.990675007195287662e+02 2.296044843144954655e+02
7.464206877845950885e+02 4.142367775982619378e+02 2.536560142048031139e+02
7.530740100605405587e+02 7.086955992879263704e+02 7.064254494378966456e+02
7.597270351536797079e+02 9.236543295540798226e+02 9.561631810588962708e+02
7.663797604385500790e+02 5.306310492904277680e+02 3.156943846933965574e+02
7.730321832898126786e+02 3.734744265448279066e+02 2.869281933863435370e+02
7.796843010822487940e+02 2.484647545835125015e+02 1.222241484285973883e+02
7.863361111907563554e+02 2.024529842740937511e+02 1.220103302640490170e+02
7.929876109903583483e+02 1.838113839564494185e+02 1.251154359669338447e+02
7.996387978561925820e+02 2.042242259317204969e+02 1.004458931598347107e+02
8.062896691635298794e+02 2.326097344826020503e+02 1.159072872213597378e+02
8.129402222877641861e+02 3.712467634813293103e+02 1.948380099582346361e+02
8.195904546044039307e+02 4.789286579880426871e+02 3.040320809706807381e+02
8.262403634891029469e+02 6.244767887751290800e+02 4.004281312806659798e+02
8.328899463176220479e+02 8.158037278505428276e+02 5.585428438937524334e+02
8.395392004658707492e+02 6.894824806698921975e+02 4.332101082660261682e+02
8.461881233098687289e+02 5.445146651724804769e+02 3.254429584576197385e+02
8.528367122257867550e+02 4.347415464218098577e+02 2.742751219955728743e+02
8.594849645899083725e+02 3.777429230738335946e+02 1.837201246375537096e+02
8.661328777786627597e+02 3.923916621260291322e+02 1.795511943712980951e+02
8.727804491686054007e+02 4.393808850067497360e+02 2.021779184107564618e+02
8.794276761364317281e+02 7.104984006859619967e+02 4.941419289228759908e+02
8.860745560589717797e+02 7.193470365492381688e+02 4.428924544479688734e+02
8.927210863131898577e+02 5.721367651869737756e+02 2.923986247907015468e+02
8.993672642761931684e+02 5.160074824156365594e+02 4.285159546748826642e+02
9.060130873252229549e+02 3.360402947890419796e+02 1.806061362855361949e+02
9.126585528376615457e+02 2.711646735770929126e+02 9.455658873946734388e+01
9.193036581910357654e+02 2.724789317596514593e+02 1.004484745161355477e+02
9.259484007630126143e+02 3.925986626319548805e+02 1.438706341209364155e+02
9.325927779314043846e+02 6.410835603947796244e+02 2.995231627489018251e+02
9.392367870741562683e+02 9.092188598791967706e+02 4.611596907222003097e+02
9.458804255693778487e+02 7.602839899962857544e+02 2.998493599992199847e+02
9.525236907953042191e+02 4.646848930944616427e+02 1.936483319449822886e+02
9.591665801303378203e+02 4.000691735080480953e+02 1.796458895456110554e+02
9.658090909530177441e+02 3.421412540007921734e+02 1.520672311044899061e+02
9.724512206420291704e+02 2.974348215082789579e+02 1.492703749016952486e+02
9.790929665762191689e+02 2.307941483165622572e+02 9.220090275813740277e+01
9.857343261345753263e+02 1.864686944489867244e+02 7.117084934300744692e+01
9.923752966962448454e+02 1.342475590810836081e+02 4.563552424608782587e+01
9.990158756405262466e+02 1.105394098991109502e+02 3.239814425704641820e+01
1.005656060346875165e+03 9.499267680999328434e+01 3.054068965193790319e+01
1.012295848194892756e+03 9.626857576368085745e+01 3.398751244412354566e+01
1.018935236564352977e+03 8.550877652934777018e+01 2.614299498166533198e+01
1.025574222835169621e+03 9.967198936897543149e+01 3.377903881579171497e+01
1.032212804387432016e+03 9.481161364604270148e+01 3.317240616479105597e+01
1.038850978601375346e+03 1.120724844700335723e+02 4.327917784661036649e+01
1.045488742857406578e+03 1.492510549254735110e+02 5.961574883409177517e+01
1.052126094536086384e+03 2.014823765358510457e+02 8.717106783802475434e+01
1.058763031018141646e+03 3.010847910319368452e+02 1.210213845804777435e+02
1.065399549684460226e+03 5.197542250447179413e+02 2.368072477766476425e+02
1.072035647916103017e+03 6.600348368812727813e+02 2.655335620441387618e+02
1.078671323094288482e+03 6.766143349890108993e+02 4.913060089100694654e+02
1.085306572600403342e+03 5.631171588619084787e+02 2.569040765995915763e+02
1.091941393816004620e+03 4.891498845678744374e+02 2.004225575162872985e+02
1.098575784122815094e+03 7.991247445869253170e+02 4.325978670082752160e+02
1.105209740902735575e+03 1.028763397150825085e+03 4.404139716411812060e+02
1.111843261537826265e+03 8.582049294759693794e+02 3.693736599751967447e+02
1.118476343410331310e+03 4.927375345884655076e+02 3.057732071006531669e+02
1.125108983902655837e+03 3.140657313545793272e+02 1.367271114240454608e+02
1.131741180397390281e+03 3.175542478095583760e+02 1.126257677577071661e+02
1.138372930277291971e+03 4.357891029662010283e+02 2.138737753994382729e+02
1.145004230925302636e+03 6.999122190621187656e+02 3.470650403601828771e+02
1.151635079724531352e+03 1.016245988961712328e+03 6.431809067633162158e+02
1.158265474058273412e+03 9.242340448430929882e+02 6.442820474194420513e+02
1.164895411310003055e+03 5.859642212776748238e+02 2.930155449607698301e+02
1.171524888863369597e+03 4.333277609694135322e+02 1.870728931348977540e+02
1.178153904102205388e+03 4.179431607237142430e+02 1.828554680184065262e+02
1.184782454410533319e+03 5.094676774945992861e+02 2.610135272706795035e+02
1.191410537172545446e+03 6.416821223755944175e+02 3.192878222750490522e+02
1.198038149772628913e+03 6.205019511662632112e+02 3.079559651493520391e+02
1.204665289595356853e+03 4.569454272016510572e+02 1.937474939367548359e+02
1.211291954025481346e+03 3.489224354338653029e+02 1.533515400716539716e+02
1.217918140447946826e+03 2.655753935282338603e+02 1.036162948962967931e+02
1.224543846247886904e+03 2.094514833993652303e+02 7.865049100148155503e+01
1.231169068810625504e+03 2.138216326417250173e+02 9.353156094416647193e+01
1.237793805521672539e+03 2.372841567490694388e+02 1.249282612577303126e+02
1.244418053766732555e+03 2.848667274739808590e+02 1.049192735958183533e+02
1.251041810931706777e+03 3.825143725555655578e+02 1.439288805357723504e+02
1.257665074402683103e+03 5.561904427233947672e+02 2.119733208386368233e+02
1.264287841565949066e+03 6.360434960248077232e+02 3.059322403077405852e+02
1.270910109807983872e+03 5.369812247737477264e+02 2.084339948947230994e+02
1.277531876515470231e+03 4.175237619399974278e+02 1.426412610785465915e+02
1.284153139075283207e+03 2.708588782906484766e+02 9.235301606391733742e+01
1.290773894874497955e+03 2.399441146519749282e+02 9.634383281126379472e+01
1.297394141300392903e+03 1.943052452712812510e+02 6.366192968463829516e+01
1.304013875740439062e+03 1.957174970603556972e+02 7.017518695434424103e+01
1.310633095582322085e+03 1.796178555122009470e+02 5.815595395901327436e+01
1.317251798213917937e+03 1.983798661043034031e+02 8.312039700456567459e+01
1.323869981023314494e+03 2.055119327586280065e+02 7.094889132418343536e+01
1.330487641398802680e+03 1.960876379738108710e+02 8.454366124544158367e+01
1.337104776728882598e+03 2.462934086874714978e+02 1.014690164421678844e+02
1.343721384402252397e+03 2.966488585208927589e+02 1.164289779963864220e+02
1.350337461807831460e+03 3.671274087851610943e+02 1.420954136191407713e+02
1.356953006334737893e+03 3.936148878752244400e+02 1.241314579682205874e+02
1.363568015372304217e+03 4.176834646353778453e+02 1.331688194575961290e+02
1.370182486310073273e+03 4.089849309818949337e+02 1.414410951533571961e+02
1.376796416537803907e+03 3.938837328767548343e+02 1.324274312424011839e+02
1.383409803445461421e+03 3.466259871422875563e+02 1.482586340066243338e+02
1.390022644423231895e+03 2.768065765105792480e+02 1.244196988202633634e+02
1.396634936861515826e+03 2.520243451792868825e+02 9.036360217426435781e+01
1.403246678150924254e+03 2.226431243290123234e+02 8.743800805880249527e+01
1.409857865682293777e+03 1.930213964660439103e+02 6.633021171304979191e+01
1.416468496846672906e+03 1.836038412149645183e+02 7.966990569730788252e+01
1.423078569035337523e+03 1.714925676493996889e+02 8.386836719313271260e+01
1.429688079639773832e+03 1.724442993135143070e+02 8.203693878937860973e+01
1.436297026051699504e+03 2.190299407768418973e+02 1.504166262586160201e+02
1.442905405663047532e+03 2.818429695904471259e+02 1.854777062723027257e+02
1.449513215865979419e+03 5.292899513279096482e+02 3.708716048223582220e+02
1.456120454052879722e+03 8.212031111399675183e+02 5.328016112360608076e+02
1.462727117616355372e+03 8.910381798918841696e+02 5.409800929494955426e+02
1.469333203949246581e+03 5.246653271766224407e+02 2.416197631484904775e+02
1.475938710444617755e+03 3.319741574080752571e+02 1.334861102226087155e+02
1.482543634495761125e+03 2.315449679524377871e+02 9.631740647112830800e+01
1.489147973496200393e+03 1.911153185417123836e+02 6.884820624480965989e+01
1.495751724839689359e+03 1.713033356911176384e+02 6.895162127609737013e+01
1.502354885920213292e+03 1.786016475056886463e+02 7.010218895937462946e+01
1.508957454131991426e+03 1.902387261253298902e+02 6.911122835792245667e+01
1.515559426869479694e+03 2.289937324921657478e+02 6.868074031996876272e+01
1.522160801527362310e+03 2.710527550809662216e+02 9.711198495320240909e+01
1.528761575500565414e+03 4.092133427984946366e+02 2.152078303401593757e+02
1.535361746184248432e+03 5.863413747380576524e+02 3.202203434891962388e+02
1.541961310973813852e+03 7.100750163278536320e+02 3.434519362684825410e+02
1.548560267264894946e+03 7.743160736643379778e+02 3.636368872565760171e+02
1.555158612453373507e+03 6.049237761748069033e+02 2.384014891999969734e+02
1.561756343935367795e+03 4.990703604930731103e+02 1.330183523393109510e+02
1.568353459107238905e+03 4.543156455532865152e+02 1.443306078314742820e+02
1.574949955365592814e+03 4.620246236520182492e+02 2.103319022456794301e+02
1.581545830107279698e+03 3.824506289171537219e+02 1.628601998088175549e+02
1.588141080729390978e+03 3.846274413549755877e+02 1.479882594322932619e+02
1.594735704629269321e+03 3.329906777767981794e+02 1.223469390861902042e+02
1.601329699204501821e+03 3.133909451036288942e+02 1.356245729390854251e+02
1.607923061852925457e+03 2.572899106653568424e+02 9.203208914061808343e+01
1.614515789972626408e+03 2.250016497486193430e+02 8.839127370633977421e+01
1.621107880961938918e+03 2.128739684157143586e+02 9.034388782270374918e+01
1.627699332219452117e+03 2.142221740885733539e+02 9.184726391098000420e+01
1.634290141144006157e+03 2.030257151963966180e+02 9.126938703809662456e+01
1.640880305134694254e+03 1.670544307731710774e+02 5.586757129712110981e+01
1.647469821590863376e+03 1.590735920546257773e+02 4.288230903380468817e+01
1.654058687912116511e+03 1.397081661526259211e+02 5.131857460433290896e+01
1.660646901498317220e+03 1.270115963665444525e+02 5.572149417832282126e+01
1.667234459749579628e+03 1.300883392203766675e+02 7.489326050331048634e+01
1.673821360066282750e+03 1.042663541013153434e+02 5.689695552697427416e+01
1.680407599849058670e+03 8.811901800611154556e+01 4.802598846821857848e+01
1.686993176498809817e+03 8.096398667805767957e+01 3.864305476354014246e+01
1.693578087416688277e+03 6.781792876729498687e+01 3.648902283226139076e+01
1.700162330004118530e+03 5.958850973671447093e+01 2.252895199490697919e+01
1.706745901662785627e+03 5.607799628377860301e+01 2.593995215345952587e+01
1.713328799794635870e+03 5.305366960647663888e+01 2.652305049366744427e+01
1.719911021801890001e+03 5.150351615341080702e+01 2.804405865775257922e+01
1.726492565087024786e+03 5.073433141979998595e+01 2.808855629138876253e+01
1.733073427052792113e+03 4.317070484809560327e+01 1.934884168538583893e+01
1.739653605102211714e+03 4.215885016738409519e+01 1.512701138908221665e+01
1.746233096638570032e+03 4.005435292522838608e+01 1.765170141982936869e+01
1.752811899065429998e+03 3.656842874242587271e+01 1.457190633520579759e+01
1.759390009786619203e+03 3.467295827621722282e+01 1.513621908702650565e+01
1.765967426206245818e+03 3.039555128470394862e+01 1.092061638137990442e+01
1.772544145728686999e+03 3.201210575283275261e+01 1.087166791488227879e+01
1.779120165758595931e+03 2.955313835915685772e+01 1.087762454741762319e+01
1.785695483700902059e+03 2.686557681738526782e+01 8.870574401097888639e+00
1.792270096960812907e+03 2.695526029495819031e+01 7.226246534114369346e+00
1.798844002943810892e+03 2.406417130974933016e+01 6.441560463026315020e+00
1.805417199055662877e+03 2.628689184903233311e+01 8.637292435139071856e+00
1.811989682702411756e+03 2.496586037427987037e+01 7.946061187041139284e+00
1.818561451290380774e+03 2.646434926747100747e+01 1.106640755991246117e+01
1.825132502226181487e+03 2.395876341313202929e+01 8.901572453213185909e+00
1.831702832916698981e+03 2.498637973092883513e+01 1.093677272731771843e+01
1.838272440769111881e+03 2.440644240048086999e+01 9.436598873098333229e+00
1.844841323190879848e+03 2.640754991728097067e+01 9.088314497881016862e+00
1.851409477589748803e+03 2.642557321364242284e+01 1.133530242486173378e+01
1.857976901373749797e+03 2.556492310803173851e+01 9.344035453580355366e+00
1.864543591951208100e+03 2.553408567343227631e+01 9.240344883358300621e+00
1.871109546730732973e+03 2.389215124820548297e+01 9.339235083807940541e+00
1.877674763121226533e+03 2.396820726504530441e+01 9.647996406866520047e+00
1.884239238531883302e+03 2.475061928057894534e+01 8.660036743193606057e+00
1.890802970372185882e+03 2.417407015033335327e+01 9.250502817159508950e+00
1.897365956051914281e+03 2.594095538117672461e+01 9.660540908985709052e+00
1.903928192981140910e+03 2.429704266034519122e+01 8.708576095850890653e+00
1.910489678570236947e+03 2.383531347403165057e+01 9.661800754411610015e+00
1.917050410229864838e+03 2.259624929503312174e+01 1.034993889628016284e+01
1.923610385370990798e+03 2.429598521974875425e+01 8.557164495015936012e+00
1.930169601404871628e+03 2.262834173122702097e+01 9.703526822879542379e+00
1.936728055743071764e+03 2.292378775648511535e+01 9.229863549259780697e+00
1.943285745797451227e+03 2.256679881152549427e+01 8.536338028129351940e+00
1.949842668980173812e+03 2.084823149367555573e+01 7.340307836000388164e+00
1.956398822703703672e+03 2.135088478714057203e+01 9.262211139649053848e+00
1.962954204380811916e+03 2.318269557607180076e+01 8.005435629538279585e+00
1.969508811424572059e+03 1.928320219782635903e+01 8.624427158927137071e+00
1.976062641248362297e+03 1.964384349382771333e+01 8.527017778162605310e+00
1.982615691265870964e+03 1.918627286014315203e+01 8.730952182070423007e+00
1.989167958891092667e+03 2.277720666724964360e+01 1.350558098181648603e+01
1.995719441538328510e+03 2.003240139881801340e+01 1.013434071793382074e+01
2.002270136622189739e+03 2.050885830478505412e+01 7.127569129846458296e+00
2.008820041557603190e+03 1.939680122248179828e+01 7.118668892342649102e+00
2.015369153759804249e+03 1.819306673675606234e+01 7.048425187145793913e+00
2.021917470644338209e+03 1.802172341670575406e+01 6.477727637848552433e+00
2.028464989627068462e+03 1.827506982223611942e+01 6.401370850434076054e+00
2.035011708124171491e+03 1.921388927104107225e+01 7.696729306298334627e+00
2.041557623552140512e+03 1.963306357236090705e+01 7.578503461400841523e+00
2.048102733327785245e+03 1.933228334988523756e+01 8.487677752661266339e+00
2.054647034868232822e+03 1.934561584234521092e+01 9.819843794485320743e+00
2.061190525590928701e+03 1.885320546773213479e+01 9.231978593590280724e+00
2.067733202913642344e+03 1.769695239337274728e+01 8.602230400211002603e+00
2.074275064254458357e+03 1.671054943262789294e+01 6.372012332530146317e+00
2.080816107031786487e+03 1.673163500521807734e+01 5.776466003034374630e+00
2.087356328664361627e+03 1.480203326921579432e+01 4.151274572233630167e+00
2.093895726571238356e+03 1.613167994562239826e+01 5.859677283700210459e+00
2.100434298171800037e+03 1.459798645917441462e+01 5.028696423281678207e+00
2.106972040885751085e+03 1.583533298727898142e+01 5.544960575433893979e+00
2.113508952133128787e+03 1.790620056818386985e+01 6.259028446199831563e+00
2.120045029334294668e+03 1.745835294489223699e+01 7.064667707856671086e+00
2.126580269909943127e+03 1.635105200015470217e+01 7.913835919915094941e+00
2.133114671281094616e+03 1.606394803190791976e+01 7.074407716117969258e+00
2.139648230869102008e+03 1.496479950618614829e+01 6.105526213196658780e+00
2.146180946095653326e+03 1.472877337136397102e+01 5.028212315425318657e+00
2.152712814382764464e+03 1.396765233766643277e+01 6.853040886601916348e+00
2.159243833152790103e+03 1.467052262378354222e+01 7.432483793350153967e+00
2.165773999828417800e+03 1.566175348691955449e+01 1.123323756663635287e+01
2.172303311832672080e+03 1.425651321015940276e+01 6.331081475578250739e+00
2.178831766588915343e+03 1.358053699522542956e+01 5.190408284374891323e+00
2.185359361520846960e+03 1.265407774522548756e+01 4.962236347300227557e+00
2.191886094052507360e+03 1.208787531433401163e+01 4.181163945030755613e+00
2.198411961608275760e+03 1.248471156508847280e+01 4.507468721008134338e+00
2.204936961612871983e+03 1.261512176117248885e+01 4.936095556243398796e+00
2.211461091491361458e+03 1.395137871377608363e+01 6.235282828579998160e+00
2.217984348669149313e+03 1.284262386739281148e+01 6.173361448851968802e+00
2.224506730571987191e+03 1.186764998662732928e+01 5.080935870234426943e+00
2.231028234625971891e+03 1.058360430409998365e+01 3.869178053363205194e+00
2.237548858257546271e+03 1.089381713043726307e+01 4.302161401306346278e+00
2.244068598893502440e+03 1.111648174934984290e+01 5.863108145009210403e+00
2.250587453960976291e+03 1.158232339929617538e+01 4.783573471126739918e+00
2.257105420887457058e+03 1.137838447062723191e+01 4.648858556070267767e+00
2.263622497100785040e+03 1.131945878690575213e+01 5.053393678119380894e+00
2.270138680029150692e+03 1.086780849854648245e+01 4.446203433773689540e+00
2.276653967101094167e+03 1.031234736762220017e+01 2.863244580977760023e+00
2.283168355745514418e+03 9.739123612411637154e+00 3.332224002348077363e+00
2.289681843391662369e+03 1.118856590279560770e+01 3.987894153173737077e+00
2.296194427469143193e+03 1.111159208122971798e+01 6.965254335995854085e+00
2.302706105407919495e+03 1.078667490736595092e+01 4.936917850617993153e+00
2.309216874638314493e+03 1.003974410925380845e+01 4.631407389617168135e+00
2.315726732591004293e+03 1.007830512358562558e+01 3.148946578616223402e+00
2.322235676697029703e+03 9.734377107474491808e+00 4.517206036484457066e+00
2.328743704387791240e+03 9.955599909210468113e+00 3.683402686909770907e+00
2.335250813095047306e+03 9.581437931553995924e+00 3.267741083476079833e+00
2.341757000250922829e+03 9.631481641746161060e+00 3.096373238255681226e+00
2.348262263287906080e+03 9.549875506627538257e+00 3.413873318882088892e+00
2.354766599638848220e+03 9.194604111284848003e+00 2.424899750980868074e+00
2.361270006736966934e+03 8.637987246868920721e+00 2.305672623886013017e+00
2.367772482015847345e+03 9.328349237593034360e+00 3.619094982473025190e+00
2.374274022909443374e+03 8.789101209172740070e+00 3.124908536767445177e+00
2.380774626852072743e+03 9.108144105583663830e+00 2.538237374230777110e+00
2.387274291278427427e+03 9.171362424972404170e+00 2.941539860435073095e+00
2.393773013623570478e+03 1.011075995052591381e+01 4.137836802941927239e+00
2.400270791322933292e+03 9.880834281135381758e+00 3.915925450790798568e+00
2.406767621812321522e+03 9.682473864898904381e+00 3.422883714473048400e+00
2.413263502527916444e+03 9.143121279572040905e+00 3.120586291765861553e+00
2.419758430906273134e+03 9.749449061781222170e+00 4.453951052725495074e+00
2.426252404384320471e+03 9.288960106599569500e+00 3.661953235231967696e+00
2.432745420399366594e+03 1.048749239112435383e+01 6.081253921139285090e+00
2.439237476389096173e+03 1.021512246565842119e+01 4.988230771897938176e+00
2.445728569791574500e+03 1.031736131825106817e+01 5.428569397022274146e+00
2.452218698045244309e+03 1.011255558013313838e+01 4.436451425924556879e+00
2.458707858588929867e+03 9.483178398023916600e+00 3.119777560800444771e+00
2.465196048861838335e+03 9.325408590787217733e+00 3.076090340748081076e+00
2.471683266303559776e+03 9.032405031619859415e+00 3.326582001909019315e+00
2.478169508354067148e+03 8.747599062697874572e+00 3.713659883558453778e+00
2.484654772453716760e+03 8.426302704162829116e+00 2.837258997935265814e+00
2.491139056043256460e+03 8.614634652434684625e+00 3.834791307064234989e+00
2.497622356563816084e+03 8.202048844797399596e+00 2.407829256976373955e+00
2.504104671456914275e+03 8.350623678667435712e+00 2.758684193947992913e+00
2.510585998164459852e+03 8.625536340728418239e+00 2.275611556236982302e+00
2.517066334128749077e+03 8.660034760751386784e+00 2.843792744587731125e+00
2.523545676792472477e+03 9.339941568285334839e+00 3.184030642811581213e+00
2.530024023598709846e+03 8.781136416051232629e+00 3.618808762774838872e+00
2.536501371990937969e+03 9.330998353645712839e+00 3.681404995259807578e+00
2.542977719413022442e+03 8.993701761515600523e+00 3.109796906958462781e+00
2.549453063309225854e+03 9.521022308515780352e+00 3.893860526291313739e+00
2.555927401124209609e+03 8.448681608863187975e+00 2.656052998279254673e+00
2.562400730303026648e+03 8.371931615510414204e+00 2.654171684808309006e+00
2.568873048291133273e+03 8.008711305138987768e+00 2.606206705812363467e+00
2.575344352534381414e+03 8.276310109283535610e+00 2.637890321869643007e+00
2.581814640479026821e+03 7.897588680803801608e+00 2.525707121583046888e+00
2.588283909571719505e+03 8.156545449322367247e+00 2.261329723904899502e+00
2.594752157259519208e+03 8.275190129770374270e+00 2.616773233834354340e+00
2.601219380989884030e+03 8.410814261307637096e+00 2.959154973898402652e+00
2.607685578210677249e+03 7.814352854685584937e+00 2.674784492366192978e+00
2.614150746370168235e+03 8.075443516972805824e+00 3.530115572809379820e+00
2.620614882917029718e+03 7.896942578328121520e+00 2.725938334753787107e+00
2.627077985300345063e+03 8.252121947619054154e+00 2.695258984013583881e+00
2.633540050969604636e+03 8.121436924773774990e+00 2.813053506201128595e+00
2.640001077374706256e+03 8.183188351177159703e+00 2.395281927551384360e+00
2.646461061965958834e+03 7.937255101304409699e+00 2.996368031662009379e+00
2.652920002194084191e+03 8.343600879774461632e+00 3.172903917136090435e+00
2.659377895510210692e+03 8.279621649097046898e+00 3.274987716405594274e+00
2.665834739365889163e+03 8.386127008636341529e+00 2.967982095385642616e+00
2.672290531213075610e+03 8.193532459359763820e+00 2.744951989932265857e+00
2.678745268504146679e+03 8.071954189806733737e+00 2.335442151320038295e+00
2.685198948691891928e+03 7.953778249403345768e+00 2.293799545929065875e+00
2.691651569229521101e+03 8.393872409870507312e+00 2.639916763950301615e+00
2.698103127570657307e+03 8.253221820308871415e+00 2.644534822945241892e+00
2.704553621169349753e+03 8.458080114603731658e+00 3.301712136635906347e+00
2.711003047480061014e+03 8.318375969740374742e+00 2.774352770275499758e+00
2.717451403957680668e+03 8.371627485591321971e+00 3.043561650669737606e+00
2.723898688057514846e+03 8.130925149864726365e+00 2.568812582965549929e+00
2.730344897235297140e+03 8.058411614274740842e+00 2.343933204919783631e+00
2.736790028947184055e+03 8.033699555992914298e+00 2.623330602440976822e+00
2.743234080649756379e+03 8.082825646810448461e+00 2.434819914136315600e+00
2.749677049800022814e+03 8.083387862926597833e+00 2.737382121594457818e+00
2.756118933855418618e+03 8.094236337710634999e+00 2.465105587832109979e+00
2.762559730273804689e+03 8.249066449923144972e+00 2.682399685667202771e+00
2.768999436513476212e+03 8.249539766496152282e+00 2.422892749844812066e+00
2.775438050033153559e+03 8.318284505608664503e+00 2.601833508199688616e+00
2.781875568291990021e+03 8.517760208475268158e+00 2.458644128466203949e+00
2.788311988749574539e+03 8.563658981185749752e+00 2.576316175944206588e+00
2.794747308865925788e+03 8.512294389498645586e+00 2.513248005420340103e+00
2.801181526101494001e+03 8.611682100811444585e+00 2.720820045847446966e+00
2.807614637917171876e+03 8.656802066455881572e+00 2.537856420721741113e+00
2.814046641774280488e+03 8.697132529924711974e+00 2.906934797630718048e+00
2.820477535134585651e+03 8.659952488019918349e+00 2.767920149083735293e+00
2.826907315460284281e+03 8.692610052832851153e+00 3.054616304161230200e+00
2.833335980214018491e+03 8.831927923574076189e+00 2.998984690548471832e+00
2.839763526858868772e+03 8.870695479165785713e+00 2.982933853820882941e+00
2.846189952858353081e+03 9.188417968482390563e+00 3.608915988427344956e+00
2.852615255676436846e+03 9.331897494981525654e+00 3.921116276170064197e+00
2.859039432777527509e+03 9.758691180823214850e+00 4.749171796202747764e+00
2.865462481626472254e+03 9.626503693016491781e+00 4.015637215337268806e+00
2.871884399688571648e+03 1.031540332174930441e+01 5.123806070291807124e+00
2.878305184429563724e+03 1.013768063981594914e+01 3.387111820220120695e+00
2.884724833315640808e+03 1.042274540806387328e+01 3.436498990041781276e+00
2.891143343813439969e+03 1.094155502906840560e+01 3.428399712178428427e+00
2.897560713390048022e+03 1.099040490419677774e+01 4.055794331373318684e+00
2.903976939513000616e+03 1.071720279886350902e+01 3.542123704498144399e+00
2.910392019650289512e+03 1.077577434114331112e+01 3.487619289467893235e+00
2.916805951270351670e+03 1.046030812595802217e+01 3.317907291750485044e+00
2.923218731842084253e+03 1.055101918401622285e+01 3.264871051433333005e+00
2.929630358834835533e+03 1.038812338031568494e+01 3.415591209897447467e+00
2.936040829718405348e+03 1.064724177709867980e+01 3.390513567767487135e+00
2.942450141963056012e+03 1.083339440674454934e+01 3.646342444648458248e+00
2.948858293039503678e+03 1.080353800945889375e+01 3.472470969676521246e+00
2.955265280418923339e+03 1.123099230632161571e+01 3.506658203931601658e+00
2.961671101572950647e+03 1.130608863827018418e+01 3.479811677075379972e+00
2.968075753973677365e+03 1.119979019629987960e+01 3.841630645188724991e+00
2.974479235093661373e+03 1.157516144369188460e+01 3.609984123810526579e+00
2.980881542405919845e+03 1.165203519711649527e+01 4.114979272055895976e+00
2.987282673383934707e+03 1.189134985155345525e+01 3.796862822822729910e+00
2.993682625501648999e+03 1.196357642579383729e+01 4.206411285710729864e+00
3.000081396233476880e+03 1.220776667299557872e+01 4.063678082267307090e+00
3.006478983054293167e+03 1.241131752424335666e+01 4.371076811814130103e+00
3.012875383439442885e+03 1.275430546067524062e+01 4.344740405798029670e+00
3.019270594864736267e+03 1.299816438441808053e+01 4.634529094454053144e+00
3.025664614806456484e+03 1.311235188876287161e+01 4.497632089645461129e+00
3.032057440741353730e+03 1.372471887968627158e+01 4.844676767604200407e+00
3.038449070146652048e+03 1.419965703027609827e+01 4.933000419647540546e+00
3.044839500500046597e+03 1.453657970492863427e+01 5.501931449783175054e+00
3.051228729279704567e+03 1.480413183370382590e+01 5.147213563182758023e+00
3.057616753964268355e+03 1.516345265549984589e+01 5.539159934708423272e+00
3.064003572032855118e+03 1.581015105996002390e+01 5.399296138703979508e+00
3.070389180965058586e+03 1.607077429348913356e+01 5.909669124738673673e+00
3.076773578240951792e+03 1.659561695740833187e+01 5.728817183709065120e+00
3.083156761341079800e+03 1.666214065129524613e+01 6.210652353944667858e+00
3.089538727746474251e+03 1.755365999497414720e+01 6.474646296667837753e+00
3.095919474938641997e+03 1.779484409558277846e+01 7.097032658716347697e+00
3.102299000399571923e+03 1.874037963163937093e+01 7.230606491034654582e+00
3.108677301611734947e+03 1.919746949295261373e+01 7.434037432110280008e+00
3.115054376058087200e+03 1.990414733122402069e+01 7.863196960488333609e+00
3.121430221222066848e+03 2.072101402056219399e+01 8.286907678252422471e+00
3.127804834587598179e+03 2.183189424798450418e+01 8.628939302793297017e+00
3.134178213639090245e+03 2.280550690271805436e+01 9.143544603470981968e+00
3.140550355861440039e+03 2.377058654382298997e+01 9.911491921653974302e+00
3.146921258740033863e+03 2.490993551043310816e+01 1.014258683632625235e+01
3.153290919760744600e+03 2.571122380775094385e+01 1.094570452398396299e+01
3.159659336409938078e+03 2.733534447686455948e+01 1.170100298608876699e+01
3.166026506174467613e+03 3.000678170717043969e+01 1.282727694163906662e+01
3.172392426541682198e+03 3.202106609497344891e+01 1.432791600647449926e+01
3.178757094999421042e+03 3.492947410481087189e+01 1.573001866685253702e+01
3.185120509036019939e+03 3.986645932357512834e+01 1.903733949989300100e+01
3.191482666140307629e+03 4.711191154486935773e+01 2.507969882621802071e+01
3.197843563801609434e+03 5.645727324293950744e+01 2.866167799608235356e+01
3.204203199509746810e+03 7.623112893508307764e+01 4.101039693311305712e+01
3.210561570755042339e+03 9.651341027164029640e+01 6.276034922681589734e+01
3.216918675028315192e+03 1.509520201568357720e+02 1.079223913608683318e+02
3.223274509820884305e+03 2.335581467594832645e+02 1.629283623085682109e+02
3.229629072624569744e+03 3.077620379821926804e+02 2.162105480899002430e+02
3.235982360931694075e+03 5.392270678307384060e+02 3.932111053495169131e+02
3.242334372235083265e+03 8.309974909821158917e+02 5.866116204340648892e+02
3.248685104028066689e+03 1.044710346947171047e+03 6.977802147971708564e+02
3.255034553804477127e+03 1.265256203333084613e+03 6.319985656980176145e+02
3.261382719058657131e+03 1.109867552021198208e+03 4.747120403590239448e+02
3.267729597285451746e+03 1.034409104224747580e+03 5.280826110752531122e+02
3.274075185980217157e+03 9.563161764741111028e+02 5.185213666658672764e+02
3.280419482638816589e+03 6.987058954131804285e+02 3.965334701351915214e+02
3.286762484757622133e+03 4.003341687224368570e+02 2.012906090358111726e+02
3.293104189833521104e+03 2.212540960846112341e+02 1.110980084536756891e+02
3.299444595363909229e+03 1.333826817153751847e+02 6.713252321696097624e+01
3.305783698846694733e+03 8.710462982890960859e+01 3.524165148773246869e+01
3.312121497780301524e+03 7.324593739022346028e+01 3.753042397768178517e+01
3.318457989663666922e+03 5.610091559445228171e+01 2.193350691446759271e+01
3.324793171996244837e+03 4.915466154233416773e+01 2.126001477441564091e+01
3.331127042278006229e+03 4.308655654298695481e+01 1.585974555444586542e+01
3.337459598009439105e+03 3.742265265757797721e+01 1.551578098973016573e+01
3.343790836691550794e+03 3.313695839790490538e+01 1.277031427283755249e+01
3.350120755825866127e+03 3.093559433765690869e+01 1.273982907137342302e+01
3.356449352914434712e+03 2.858346157865412707e+01 1.102381084070740513e+01
3.362776625459824572e+03 2.727020714603238716e+01 1.125240803579699111e+01
3.369102570965128052e+03 2.582623362814506862e+01 9.802465459230797151e+00
3.375427186933960002e+03 2.442215165679504807e+01 9.797441447057101627e+00
3.381750470870460958e+03 2.379866416896467030e+01 9.262276026087787884e+00
3.388072420279298058e+03 2.305033968610611694e+01 9.148596154215940857e+00
3.394393032665663213e+03 2.223765896404173859e+01 8.838758282161297331e+00
3.400712305535275391e+03 2.136952549637890542e+01 8.692889765274170344e+00
3.407030236394383337e+03 2.115819061945421353e+01 8.877556823772469130e+00
3.413346822749767853e+03 2.058610756033224831e+01 8.785662462337260337e+00
3.419662062108734517e+03 2.016488280320286819e+01 9.574313842405580033e+00
3.425975951979126876e+03 1.967378906914647274e+01 8.856202408715631691e+00
3.432288489869315072e+03 1.983673299572161497e+01 1.040241471725485667e+01
3.438599673288208578e+03 1.927475630966935327e+01 9.498451678260778408e+00
3.444909499745246649e+03 1.957750931563924368e+01 1.141785394648527330e+01
3.451217966750404685e+03 1.909144696864965596e+01 1.061107488062154935e+01
3.457525071814198327e+03 1.995951331120607719e+01 1.457534012880642926e+01
3.463830812447677545e+03 1.933904662140809094e+01 1.246335781564559575e+01
3.470135186162429818e+03 2.168111887839415175e+01 2.339696472687926487e+01
3.476438190470583322e+03 2.005925467660500061e+01 1.511381906927322483e+01
3.482739822884810565e+03 2.542185524247697614e+01 3.991251359620449790e+01
3.489040080918316562e+03 2.007022254561875130e+01 1.107363580067356068e+01
3.495338962084857485e+03 2.690799763797716793e+01 4.054640220570390596e+01
3.501636463898727015e+03 2.390539961881240316e+01 1.928452264325035870e+01
3.507932583874767715e+03 4.951179391993034784e+01 1.404070638127687118e+02
3.514227319528361022e+03 5.796258114789384308e+01 1.736560284014376236e+02
3.520520668375443620e+03 1.365086029015923828e+02 6.009334766736607207e+02
3.526812627932491523e+03 1.277396460620041410e+02 5.228687322149876309e+02
3.533103195716532355e+03 1.111970967693670929e+02 3.558631445706195677e+02
3.539392369245142618e+03 1.242550094716318512e+02 2.761143794686988713e+02
3.545680146036449969e+03 1.452786574702888061e+02 2.209816993541763566e+02
3.551966523609130945e+03 3.197604501902048355e+02 5.756437792445186687e+02
3.558251499482418239e+03 2.857691858521243944e+02 3.211834795154484254e+02
3.564535071176092060e+03 3.924873332076488737e+02 3.427825881300118454e+02
3.570817236210491501e+03 2.839049496569417670e+02 2.643701245669625450e+02
3.577097992106509082e+03 1.346352514601998394e+02 9.567983456678460641e+01
3.583377336385592116e+03 8.324661774485927879e+01 6.953830632570986836e+01
3.589655266569747710e+03 4.149714030609871429e+01 2.524967407564560773e+01
3.595931780181538670e+03 3.579428561003165044e+01 1.928751354218981362e+01
3.602206874744087600e+03 2.714434212967402971e+01 1.701977203799404847e+01
3.608480547781075984e+03 2.497031494237579352e+01 1.439920385529923053e+01
3.614752796816750561e+03 2.089005211215621216e+01 1.260057135661390504e+01
3.621023619375914677e+03 1.966671972234383503e+01 1.105783459644411160e+01
3.627293012983938752e+03 1.617963814599355743e+01 9.612438045530137032e+00
3.633560975166752542e+03 1.581845433551226954e+01 8.787870515842984176e+00
3.639827503450854238e+03 1.443733408188727729e+01 8.505190059719442530e+00
3.646092595363308646e+03 1.380563353622486211e+01 7.157555668207957744e+00
3.652356248431743552e+03 1.312559547300142349e+01 7.503969044004040079e+00
3.658618460184358355e+03 1.246225198136303192e+01 6.243206198092249970e+00
3.664879228149919072e+03 1.204382464431717636e+01 6.846834254616095627e+00
3.671138549857761973e+03 1.154314340752483226e+01 5.726496421388478808e+00
3.677396422837793580e+03 1.122275740968577651e+01 6.054419720948003736e+00
3.683652844620492942e+03 1.084728729731222785e+01 5.309898394793331811e+00
3.689907812736911183e+03 1.046195326846947360e+01 5.457012977596511938e+00
3.696161324718674223e+03 1.028596978649584415e+01 5.085232710801406597e+00
3.702413378097982786e+03 9.878232199712520867e+00 4.980881783131922980e+00
3.708663970407609668e+03 9.705688550075187493e+00 4.621532450502812139e+00
3.714913099180908375e+03 9.347255091330858079e+00 4.632735408947182165e+00
3.721160761951808126e+03 9.187066104430659408e+00 4.380407848451180364e+00
3.727406956254816578e+03 8.918977156718758792e+00 4.366476598200702774e+00
3.733651679625021643e+03 8.752895814057161772e+00 4.069241045701232906e+00
3.739894929598090584e+03 8.530701230229489340e+00 4.083969601617084777e+00
3.746136703710273196e+03 8.351461525377414929e+00 3.827916319438186221e+00
3.752376999498401347e+03 8.169348562225275501e+00 3.838170208776995551e+00
3.758615814499890348e+03 8.020430033164537065e+00 3.601847455672379628e+00
3.764853146252739407e+03 7.842965846906512439e+00 3.647533882926756732e+00
3.771088992295532989e+03 7.719645897880104357e+00 3.433316123242800444e+00
3.777323350167443095e+03 7.546615110232554713e+00 3.467596794784789438e+00
3.783556217408228804e+03 7.419246090619152412e+00 3.228014650474999137e+00
3.789787591558234453e+03 7.265093308057283039e+00 3.272941812637150782e+00
3.796017470158398737e+03 7.163730580022144245e+00 3.081124924604700777e+00
3.802245850750246063e+03 7.030859399721801850e+00 3.111770967377085473e+00
3.808472730875893376e+03 6.942249294122478709e+00 2.924492321191329847e+00
3.814698108078050609e+03 6.797586644622178653e+00 2.982880572894643478e+00
3.820921979900020688e+03 6.712403551228422138e+00 2.829694254827425315e+00
3.827144343885699072e+03 6.587770998787287446e+00 2.861727742354336357e+00
3.833365197579578307e+03 6.488351838201968036e+00 2.692878138365062402e+00
3.839584538526745291e+03 6.414715759676125728e+00 2.754113512532208041e+00
3.845802364272884006e+03 6.274534955378737067e+00 2.589980586200035795e+00
3.852018672364279155e+03 6.223614748194803425e+00 2.637839396244052281e+00
3.858233460347809796e+03 6.142180886609570400e+00 2.499548738192714392e+00
3.864446725770957983e+03 6.057039334234976202e+00 2.557159056197339631e+00
3.870658466181806034e+03 5.958002482876562311e+00 2.378767438164443249e+00
3.876868679129036991e+03 5.913230735107966041e+00 2.479321788661626780e+00
3.883077362161938254e+03 5.831221324016188312e+00 2.332575508459211466e+00
3.889284512830401582e+03 5.722081023163905655e+00 2.373975352286895379e+00
3.895490128684918545e+03 5.670631972282527578e+00 2.237231948998725350e+00
3.901694207276592351e+03 5.588430974673361362e+00 2.281665755784124450e+00
3.907896746157130110e+03 5.532938085075574719e+00 2.146035413402205716e+00
3.914097742878847384e+03 5.439295879695953850e+00 2.208697648607303776e+00
3.920297194994666825e+03 5.382485593189442419e+00 2.101062929872551610e+00
3.926495100058121352e+03 5.316510680307943382e+00 2.132641290543029644e+00
3.932691455623356887e+03 5.255143797973660824e+00 2.039238165841904316e+00
3.938886259245126439e+03 5.232221649831334531e+00 2.058321189465510237e+00
3.945079508478797379e+03 5.141239729719616847e+00 1.997243161392971311e+00
3.951271200880352808e+03 5.135755870058171801e+00 2.022091293898592657e+00
3.957461334006385641e+03 5.120754487139865141e+00 1.978374655950491778e+00
3.963649905414107707e+03 5.129507944263397512e+00 2.007489862717899864e+00
3.969836912661347014e+03 4.988264617549302393e+00 1.892815377310854696e+00
3.976022353306545028e+03 5.058608780240527736e+00 1.936865238879217355e+00
3.982206224908768036e+03 4.953600740698732352e+00 1.874573380459406691e+00
3.988388525027693959e+03 4.918799536983535781e+00 1.907826530888540706e+00
3.994569251223626452e+03 4.802100071096950806e+00 1.802867673538000926e+00
4.000748401057488081e+03 4.747515982082535224e+00 1.859895309766836036e+00
4.006925972090824416e+03 4.719912797915433167e+00 1.781855123928607787e+00
4.013101961885803576e+03 4.614999599138835507e+00 1.766692268563426094e+00
4.019276368005215772e+03 4.680565736220163586e+00 1.731194990947484191e+00
4.025449188012480136e+03 4.721816940748305491e+00 1.963049127326738752e+00
4.031620419471638343e+03 4.501690808467422755e+00 1.632614271142272422e+00
4.037790059947360078e+03 4.566279670099144816e+00 1.693795882059810687e+00
4.043958107004943940e+03 4.473687526642297740e+00 1.593303341281985253e+00
4.050124558210316081e+03 4.358381093691527930e+00 1.659853573713585551e+00
4.056289411130031112e+03 4.319628693889869808e+00 1.556696714322095554e+00
4.062452663331278472e+03 4.282880650162900871e+00 1.599758491672388372e+00
4.068614312381874697e+03 4.239854757691639442e+00 1.535291668265008402e+00
4.074774355850272968e+03 4.224274779161712345e+00 1.630514724016970174e+00
4.080932791305555838e+03 4.163563856901071780e+00 1.515129644874897208e+00
4.087089616317444779e+03 4.109708894008826441e+00 1.552238664449422378e+00
4.093244828456293817e+03 4.048510126630834982e+00 1.471208036389537899e+00
4.099398425293094988e+03 4.084100663250849195e+00 1.548179064162276353e+00
4.105550404399475156e+03 3.924110084534290444e+00 1.306106932591512004e+00
4.111700763347705106e+03 4.079441958590221518e+00 1.712621891415454289e+00
4.117849499710687269e+03 3.927289031677464681e+00 1.344334938386330114e+00
4.123996611061971635e+03 3.990545723094018005e+00 1.708405791196810908e+00
4.130142094975746659e+03 3.995592385804831004e+00 1.509462695282655087e+00
4.136285949026840171e+03 4.299333208193981903e+00 2.462983405939473069e+00
4.142428170790727563e+03 3.752085001250472729e+00 1.144948304954830576e+00
4.148568757843527237e+03 3.865285772226951799e+00 1.471263109516912637e+00
4.154707707761999700e+03 3.829297588173954825e+00 1.589927480183634945e+00
4.160845018123556656e+03 4.024214529847968791e+00 2.452788836263523731e+00
4.166980686506251004e+03 3.932300964286908673e+00 2.277712406868686479e+00
4.173114710488790479e+03 3.860165928130631308e+00 1.867273570104642344e+00
4.179247087650524918e+03 3.578955815982078015e+00 1.016281491809684523e+00
4.185377815571458086e+03 3.751920366082144298e+00 1.747489921584508110e+00
4.191506891832242218e+03 3.683697667025389144e+00 1.306962777282836274e+00
4.197634314014186202e+03 3.674320505960716243e+00 1.393557438089493061e+00
