9.337840431472375258e+01 3.258983744109242480e+02 3.541825131658637815e+01
1.000480995081907878e+02 3.625550630347078140e+02 2.400978833141866176e+01
1.067177552200225961e+02 2.660909104323416159e+02 3.405371467132728469e+01
1.133873688182344210e+02 3.242105149758808125e+02 7.489425353038183175e+01
1.200569376707849614e+02 3.151038595785150846e+02 4.223436438789548220e+01
1.267264591457304732e+02 3.204661425207036132e+02 1.257244712512477349e+02
1.333959306110972705e+02 4.831969382980523733e+02 5.285890311768625338e+01
1.400653494349022878e+02 8.521590421694743327e+02 1.745812734152121948e+01
1.467347129852310559e+02 7.399749477198540717e+02 7.318399497270809206e+01
1.534040186301933772e+02 7.102862591902735403e+02 6.572363410569147391e+01
1.600732637379087180e+02 2.965001187306002066e+02 1.419629762103539861e+01
1.667424456764764216e+02 5.444472292484855416e+02 2.631524619129845632e+02
1.734115618141142932e+02 4.645610602156382356e+02 9.623934973570558782e+01
1.800806095189884388e+02 6.322740986093634774e+02 1.502030102381991128e+02
1.867495861592966548e+02 2.627295179234444049e+02 1.427488659114817438e+01
1.934184891033345082e+02 1.079430079219696665e+02 5.429223921834427813e+00
2.000873157193286431e+02 8.073909875246107504e+01 1.123673363213571719e+01
2.067560633756200446e+02 9.261596832740852392e+01 1.543913043315912859e+01
2.134247294405192577e+02 6.603212645052909124e+01 4.046578781026870075e+00
2.200933112824151578e+02 5.767941981021260744e+01 9.334807467470682241e+00
2.267618062697124799e+02 3.891309744531646686e+01 3.103453390771257148e+00
2.334302117708197386e+02 5.538441527353248972e+01 6.933782349005007006e+00
2.400985251542435606e+02 4.121885287756245475e+01 2.110856710866528374e+00
2.467667437884640265e+02 3.961716119209115305e+01 2.438158498445957889e+00
2.534348650420397178e+02 3.051272980212951680e+01 1.024599926341846157e+00
2.601028862835518680e+02 3.571733710596922151e+01 3.170144636394667259e+00
2.667708048816387532e+02 2.777358101271080670e+01 3.031894590214951890e+00
2.734386182049328795e+02 3.066653835785609061e+01 4.877692567105782473e+00
2.801063236221641546e+02 2.520984068785433863e+01 2.323177257313295385e+00
2.867739185020837454e+02 3.020874888271285741e+01 3.357230693999149196e-01
2.934414002134629413e+02 2.380259253957986942e+01 1.954365920611905949e+00
3.001087661251536929e+02 2.868369262664397112e+01 2.593168247657335002e+00
3.067760136060294371e+02 2.366283918057611757e+01 7.162878775066268133e-01
3.134431400250231263e+02 2.785258714021057358e+01 9.119756779202887742e-01
3.201101427511105157e+02 2.223958093416310433e+01 2.789302824698957295e+00
3.267770191533253978e+02 2.594475375374774728e+01 2.688260867941190568e+00
3.334437666007248140e+02 1.966664627981992197e+01 1.807627914810781888e+00
3.401103824624506160e+02 2.611369188702276745e+01 1.123426693643033047e+00
3.467768641076751237e+02 2.180178337804333921e+01 1.195841185554806785e+00
3.534432089056329005e+02 2.690546272362337277e+01 5.522353557981865890e+00
3.601094142256048372e+02 2.019127826263994763e+01 2.404105518267888542e+00
3.667754774369299753e+02 2.379410685857303775e+01 1.073905877571009526e+00
3.734413959090151138e+02 2.175863035373797771e+01 5.459946757061207023e-01
3.801071670112945071e+02 2.456446480821902156e+01 7.627721109521967691e-01
3.867727881132904599e+02 2.078408768214818281e+01 2.957307009402843079e-01
3.934382565845795625e+02 2.308757701210252833e+01 6.786458078896497881e-01
4.001035697947866652e+02 1.914797350151943078e+01 6.077645232718662527e-01
4.067687251136013060e+02 2.165537288037535291e+01 2.926316879111183766e-01
4.134337199107779384e+02 2.023333750333365089e+01 7.956876496637921292e-01
4.200985515561353054e+02 2.307554088179223939e+01 2.742034936608856555e+00
4.267632174195638868e+02 2.138610405258974723e+01 2.861243137093872235e+00
4.334277148709957714e+02 2.403653338956231877e+01 2.970763844399890274e+00
4.400920412804624675e+02 2.275810913420878734e+01 3.795974208188004795e+00
4.467561940180291344e+02 2.397416185081045370e+01 3.810434920274408555e+00
4.534201704538568265e+02 2.038089023501357389e+01 1.305254758001046511e+00
4.600839679581663404e+02 2.246793196613287336e+01 1.835838043078812376e-01
4.667475839012366805e+02 2.111849640941059647e+01 1.080808954019516932e+00
4.734110156534374028e+02 2.582214063626759781e+01 8.907485874696678962e-01
4.800742605852057636e+02 2.102845740727187618e+01 3.345572256048829018e+00
4.867373160670450147e+02 2.392190264579117809e+01 2.119427727853663512e+00
4.934001794695350327e+02 2.315812901982758376e+01 2.655676416432312337e+00
5.000628481633488036e+02 2.436425391785747507e+01 2.436325612536027307e+00
5.067253195192053568e+02 2.301331100949747466e+01 2.404915705539135473e+00
5.133875909079293933e+02 2.366702639777250283e+01 2.865500594422647040e+00
5.200496597004049590e+02 2.263107825232684078e+01 2.179623336334056916e+00
5.267115232676089818e+02 2.546205991145355796e+01 1.563280890691247649e+00
5.333731789806014376e+02 2.451108353656632488e+01 9.560882202453573342e-01
5.400346242105096053e+02 2.880199268130968449e+01 2.384270992911458720e+00
5.466958563285487571e+02 2.893155234336946791e+01 2.229518562728559417e+00
5.533568727060296624e+02 3.222572351242578748e+01 1.986861160287919148e+00
5.600176707143421027e+02 2.788391692449114956e+01 2.050414419827465196e+00
5.666782477249461181e+02 4.289539387120196778e+01 8.687742631591852671e+00
5.733386011094181640e+02 3.534035837135530755e+01 6.105224334089394134e+00
5.799987282394010890e+02 4.781506426871456483e+01 8.832437443213642325e+00
5.866586264866288047e+02 4.332669942269666308e+01 9.778656213097111305e+00
5.933182932229415201e+02 7.096632047251804920e+01 2.388779830754914713e+01
5.999777258202501571e+02 6.485669427096753736e+01 2.581495835666378014e+01
6.066369216505727309e+02 9.771733607363381680e+01 2.744330452450782687e+01
6.132958780860092247e+02 1.536704465272082984e+02 4.227088262314752143e+01
6.199545924987667149e+02 3.820638482342726547e+02 1.706729734200988560e+02
6.266130622611390208e+02 8.304420824503114318e+02 4.422414558599165275e+02
6.332712847455222800e+02 7.313303390712811733e+02 5.152619061953528217e+02
6.399292573243976676e+02 5.918865673158589971e+02 4.321845068778233099e+02
6.465869773703675492e+02 1.002546465294427207e+03 8.217311095316738374e+02
6.532444422561088686e+02 1.353793156995811160e+03 1.159980809374728096e+03
6.599016493544120294e+02 9.512501694566917649e+02 5.095091951034885938e+02
6.665585960381747554e+02 4.469877722086864651e+02 6.736488408781679027e+01
6.732152796803860610e+02 2.813381795053074939e+02 1.123914868728139851e+02
6.798716976541442136e+02 3.909761848119144361e+02 1.331931613069208140e+02
6.865278473326553694e+02 8.580465487622839191e+02 6.089221538753688492e+02
6.931837260892222048e+02 7.794667118822604834e+02 4.736953976745038517e+02
6.998393312972604008e+02 4.988859916775133456e+02 2.305382832494025820e+02
7.064946603302972790e+02 2.645627933331616077e+02 4.316188389222787691e+00
7.131497105619599779e+02 2.191328967670389432e+02 2.913850848033129637e+01
7.198044793659961442e+02 1.658312792788573233e+02 2.480560980918149028e+01
7.264589641162536964e+02 1.337913235243755139e+02 2.164198139385430864e+01
7.331131621867042440e+02 7.737905291141507291e+01 4.191384373996697832e+00
7.397670709514198961e+02 1.125684639611191074e+02 3.641577241546630006e+01
7.464206877845950885e+02 2.312930036930974325e+02 1.056345550437582261e+02
7.530740100605405587e+02 4.391554949958616589e+02 2.051057725260323821e+02
7.597270351536797079e+02 8.834819539426831625e+02 5.693548242567185298e+02
7.663797604385500790e+02 3.704638052320009933e+02 1.952749968906902609e+02
7.730321832898126786e+02 2.436878166919233308e+02 1.483883806837637849e+02
7.796843010822487940e+02 1.726532449045598980e+02 9.105619213762578568e+01
7.863361111907563554e+02 8.504422650864188427e+01 9.468105093309731046e-01
7.929876109903583483e+02 1.177379900218977582e+02 3.212751482066125419e+01
7.996387978561925820e+02 1.224963236191326530e+02 1.452740341205539920e+01
8.062896691635298794e+02 1.187627473409151548e+02 2.421686088831939543e+01
8.129402222877641861e+02 2.866631432317690837e+02 1.550922723061650004e+02
8.195904546044039307e+02 5.168547312672435510e+02 3.368077500361524130e+02
8.262403634891029469e+02 1.288708426523148091e+03 7.473833629336404556e+02
8.328899463176220479e+02 6.788923067214573166e+02 3.037377131775469934e+02
8.395392004658707492e+02 4.489517861744384959e+02 1.700706619782542361e+02
8.461881233098687289e+02 2.881749134558831997e+02 9.867024137688075314e+01
8.528367122257867550e+02 2.038530177348256416e+02 8.094806257906316205e+01
8.594849645899083725e+02 1.371639129300205298e+02 3.009425154132742364e+00
8.661328777786627597e+02 1.937868761896593810e+02 3.770459070707546800e+01
8.727804491686054007e+02 1.867501572060139097e+02 5.424727032010567029e+01
8.794276761364317281e+02 3.740508335818618093e+02 7.764231956103435550e+01
8.860745560589717797e+02 6.600349392248303957e+02 5.700604195602534219e+01
8.927210863131898577e+02 2.801274287505998473e+02 2.094959278484714105e+01
8.993672642761931684e+02 1.844218300353653319e+02 4.508482042915167654e+01
9.060130873252229549e+02 1.258044760687284622e+02 2.783495766385583892e+01
9.126585528376615457e+02 1.449497384267442612e+02 2.293968762752564317e+01
9.193036581910357654e+02 1.097374963904536003e+02 2.324550389260144811e+01
9.259484007630126143e+02 2.946367914011766516e+02 1.324457032264363363e+02
9.325927779314043846e+02 5.796916588589315324e+02 1.889860540598931493e+01
9.392367870741562683e+02 1.026611105230486828e+03 3.330012847929265263e+02
9.458804255693778487e+02 7.595251270799124086e+02 1.242879378103934869e+02
9.525236907953042191e+02 2.210857435269614371e+02 6.237073198249858308e+01
9.591665801303378203e+02 2.065076799310000979e+02 4.597237581117188654e+01
9.658090909530177441e+02 2.474905203241892195e+02 1.077730704813661049e+02
9.724512206420291704e+02 2.007004345717099909e+02 7.010528803785916807e+01
9.790929665762191689e+02 2.258384499833078110e+02 7.014803595598735342e+01
9.857343261345753263e+02 8.069744510485443811e+01 3.776598765725722728e+00
9.923752966962448454e+02 7.650612134828534749e+01 6.364210332392083558e+00
9.990158756405262466e+02 6.829555232051018265e+01 2.360664118380668697e+00
1.005656060346875165e+03 5.155215281465807919e+01 1.363598088841015965e+00
1.012295848194892756e+03 5.356322953380916374e+01 9.392205456676396835e+00
1.018935236564352977e+03 5.229207233790747011e+01 6.282229935971379575e-01
1.025574222835169621e+03 6.024353507315753831e+01 9.060912120315741447e+00
1.032212804387432016e+03 6.215253065183196668e+01 1.594842535868760791e+00
1.038850978601375346e+03 7.248496797146938775e+01 4.813886135200867500e+00
1.045488742857406578e+03 1.245388892184053304e+02 2.861918980497205212e+01
1.052126094536086384e+03 1.293543711221278159e+02 2.482424570159013655e+01
1.058763031018141646e+03 3.641776644887021348e+02 4.936157958716069061e+01
1.065399549684460226e+03 8.489846185658350350e+02 1.781846836795614308e+01
1.072035647916103017e+03 5.925393533515290301e+02 3.394344819151353931e+01
1.078671323094288482e+03 3.641315278496896326e+02 5.388259879584902023e+01
1.085306572600403342e+03 2.622956346159415943e+02 3.333063044985897250e+01
1.091941393816004620e+03 2.974724158340293911e+02 1.258248304881777955e+02
1.098575784122815094e+03 8.731227054330792043e+02 6.029644796916874157e+02
1.105209740902735575e+03 8.006328729164050628e+02 1.903216333927798587e+01
1.111843261537826265e+03 8.379082724530103405e+02 1.415715577504592488e+02
1.118476343410331310e+03 5.163210361860764124e+02 3.150906135431072244e+02
1.125108983902655837e+03 1.756844307799361786e+02 4.098990676249522380e+01
1.131741180397390281e+03 1.533703412723176314e+02 5.035809128946766577e+01
1.138372930277291971e+03 2.799201398929107540e+02 1.141945163545181430e+02
1.145004230925302636e+03 3.832136865212523844e+02 1.775529492363636734e+02
1.151635079724531352e+03 2.503822878141650961e+02 1.320795316754740156e+01
1.158265474058273412e+03 3.275368532638558463e+02 1.523844892725466593e+02
1.164895411310003055e+03 2.411598468484957607e+02 3.966629499133675552e+01
1.171524888863369597e+03 1.861256054778177145e+02 4.568651665713012733e+01
1.178153904102205388e+03 1.727501872001562333e+02 1.494953406345351254e+01
1.184782454410533319e+03 2.597281526985169648e+02 1.641433163166580300e+01
1.191410537172545446e+03 3.135797262966625567e+02 3.760115973567383207e+01
1.198038149772628913e+03 3.257747335713160055e+02 2.262827829599333995e+01
1.204665289595356853e+03 1.655817498454882752e+02 5.750699809261405449e+00
1.211291954025481346e+03 2.042157066570538291e+02 7.112429147863890933e+01
1.217918140447946826e+03 1.122567248401276458e+02 1.668140632244700328e+01
1.224543846247886904e+03 1.408464533923023794e+02 6.427724923044414140e+01
1.231169068810625504e+03 9.695332216959961613e+01 1.404930005790529890e+01
1.237793805521672539e+03 1.681424053156130185e+02 3.954231938812856129e+01
1.244418053766732555e+03 1.979947151752361947e+02 1.451694053368768778e+00
1.251041810931706777e+03 4.003947540363814142e+02 1.123589583258864621e+02
1.257665074402683103e+03 6.123310842698094802e+02 5.766129828772301380e+01
1.264287841565949066e+03 9.025414179171209526e+02 8.527250211190585105e+01
1.270910109807983872e+03 7.295741733110503446e+02 2.907709696348140369e+02
1.277531876515470231e+03 4.357117065215992966e+02 8.023009446117686139e+01
1.284153139075283207e+03 2.216139656708423331e+02 3.614133404176652675e+01
1.290773894874497955e+03 1.157629208064026614e+02 3.280216732329272133e+00
1.297394141300392903e+03 1.648083863055667280e+02 2.591071519046575133e+01
1.304013875740439062e+03 1.215329177755942283e+02 4.236582555513680148e+01
1.310633095582322085e+03 1.524138498638527039e+02 7.509460587202809734e+00
1.317251798213917937e+03 1.030865238885180020e+02 6.659035606186321843e+00
1.323869981023314494e+03 9.466752525907065774e+01 7.117718864439396498e+00
1.330487641398802680e+03 1.016056320810446039e+02 6.012821129052731806e+00
1.337104776728882598e+03 1.421016636080910303e+02 2.214817076654640005e+00
1.343721384402252397e+03 1.476727030969732368e+02 4.502722222613982694e+00
1.350337461807831460e+03 1.995983765651287740e+02 4.604114878426543100e+00
1.356953006334737893e+03 3.098719422114645567e+02 3.419529310354192830e+01
1.363568015372304217e+03 2.514879716910034517e+02 4.274634380663015065e+01
1.370182486310073273e+03 2.652024605342298855e+02 1.959919405329731035e+01
1.376796416537803907e+03 2.504485280418770117e+02 5.782801555665076876e+01
1.383409803445461421e+03 1.433863664096002140e+02 1.222938799879092642e+01
1.390022644423231895e+03 1.734068634231255146e+02 3.040977091401011023e+01
1.396634936861515826e+03 1.437317131612494450e+02 5.681228227750605697e+01
1.403246678150924254e+03 1.166749346448714988e+02 4.298382691220182039e+01
1.409857865682293777e+03 1.380461995345343951e+02 2.502339647422883928e+01
1.416468496846672906e+03 1.176924461755238411e+02 2.515399670070756599e+01
1.423078569035337523e+03 1.150799357351401397e+02 7.511768017946288012e+00
1.429688079639773832e+03 9.898959356770077989e+01 7.738879779379097101e+00
1.436297026051699504e+03 1.258516738084362032e+02 2.677388738511260158e+01
1.442905405663047532e+03 1.925161908308926968e+02 2.798539653156694840e+01
1.449513215865979419e+03 5.975901958052935470e+02 2.429760469927405495e+02
1.456120454052879722e+03 1.117822377044919222e+03 1.573665692896506698e+02
1.462727117616355372e+03 1.634006946526422325e+03 7.117292132201606591e+02
1.469333203949246581e+03 7.325307078083610577e+02 1.473584936709323188e+02
1.475938710444617755e+03 3.446909580043925416e+02 1.562467515754040051e+02
1.482543634495761125e+03 1.854360184332160202e+02 2.855111094878091649e+01
1.489147973496200393e+03 1.218728681823636180e+02 1.168143118163175842e+01
1.495751724839689359e+03 1.119923505494590756e+02 1.921004762654643372e+01
1.502354885920213292e+03 1.059964967989923963e+02 2.058489344512176444e+01
1.508957454131991426e+03 1.595504438418766995e+02 1.668714972666450080e+00
1.515559426869479694e+03 1.710377011242516971e+02 2.267870778681589172e+01
1.522160801527362310e+03 1.858353038113988873e+02 1.174691668787131782e+01
1.528761575500565414e+03 1.921293735049886777e+02 2.708687137723279648e+01
1.535361746184248432e+03 4.613561570917466952e+02 2.067071632435410891e+02
1.541961310973813852e+03 5.536513496209798859e+02 5.005540798842079653e+01
1.548560267264894946e+03 4.793392635450107946e+02 1.653363528187436771e+02
1.555158612453373507e+03 4.083371575725791445e+02 2.004314970768814419e+02
1.561756343935367795e+03 4.393645004852940019e+02 9.548460219333293253e+00
1.568353459107238905e+03 5.449318365174530072e+02 2.155800331801019354e+02
1.574949955365592814e+03 4.338511752925526821e+02 1.672776879514848929e+02
1.581545830107279698e+03 2.184646614014973238e+02 7.948252234869556787e+01
1.588141080729390978e+03 1.911847043628322353e+02 1.231398615707169597e+01
1.594735704629269321e+03 2.128114303508453986e+02 4.823601051404608597e+00
1.601329699204501821e+03 1.844633946833188816e+02 3.245702386204152390e+01
1.607923061852925457e+03 1.330522709005629167e+02 3.145723030087287952e+01
1.614515789972626408e+03 1.268975151421945498e+02 7.960599190669881864e+00
1.621107880961938918e+03 1.450131132121453561e+02 2.996539566653169118e+00
1.627699332219452117e+03 1.699269880308402776e+02 2.210285637192937713e+01
1.634290141144006157e+03 1.353494557216149872e+02 9.332923695232601347e+00
1.640880305134694254e+03 9.275908610609859295e+01 8.416302999075526259e+00
1.647469821590863376e+03 1.142038115590065814e+02 3.023894075792965452e+01
1.654058687912116511e+03 1.077478587112030226e+02 6.190882959357584525e+01
1.660646901498317220e+03 1.041257117690930585e+02 4.079545899175597157e+01
1.667234459749579628e+03 1.393048758751477862e+02 5.879215317928338891e+01
1.673821360066282750e+03 1.521899393546128465e+02 5.668286869941524486e+01
1.680407599849058670e+03 7.776130298622476289e+01 7.323944988724576888e+00
1.686993176498809817e+03 6.181781050363539265e+01 2.047151874080057610e-01
1.693578087416688277e+03 4.856639028990299778e+01 9.249952102735246484e+00
1.700162330004118530e+03 4.340813094031658181e+01 1.773504463330121794e+01
1.706745901662785627e+03 4.266383704175411395e+01 1.345471547997831863e+00
1.713328799794635870e+03 3.662418694728832946e+01 4.347251344208089563e+00
1.719911021801890001e+03 3.294558086202666658e+01 4.597942438527127251e+00
1.726492565087024786e+03 4.547829870546508602e+01 1.678621494121293267e+01
1.733073427052792113e+03 2.888686470435106912e+01 4.715931325208940095e+00
1.739653605102211714e+03 2.580207249821413740e+01 4.374564327013215959e+00
1.746233096638570032e+03 2.583669394887409609e+01 4.746539767473233695e+00
1.752811899065429998e+03 2.921699282428823707e+01 2.528381592591546934e+00
1.759390009786619203e+03 2.652589665608048008e+01 2.406159989747333583e+00
1.765967426206245818e+03 2.651170200415720757e+01 1.112518514396915847e+00
1.772544145728686999e+03 2.646012165037941344e+01 2.202993394663263160e+00
1.779120165758595931e+03 2.619257885569086497e+01 2.172837209717432216e+00
1.785695483700902059e+03 2.890248129054127446e+01 2.534691114393362810e+00
1.792270096960812907e+03 2.559708281574756938e+01 2.837557057765105473e+00
1.798844002943810892e+03 2.151567789319804191e+01 1.148815894418856232e+00
1.805417199055662877e+03 1.801994359407602175e+01 5.380621645729775082e-01
1.811989682702411756e+03 2.237150619002108698e+01 3.389920186587813689e+00
1.818561451290380774e+03 2.376074238052645882e+01 7.325809047190372070e+00
1.825132502226181487e+03 2.504700228647133997e+01 1.122876553919955001e+00
1.831702832916698981e+03 3.420896926913589198e+01 1.066050781975384965e+01
1.838272440769111881e+03 2.746201977518018822e+01 1.056784743679901872e+01
1.844841323190879848e+03 2.536589357624935559e+01 3.485477232308475948e+00
1.851409477589748803e+03 2.871904978281813214e+01 2.307017318644275505e+00
1.857976901373749797e+03 2.317100819053909078e+01 4.898369851034068745e+00
1.864543591951208100e+03 2.415734650221926216e+01 1.212861038975381334e+00
1.871109546730732973e+03 1.744864602231227124e+01 1.038717917504108357e+00
1.877674763121226533e+03 2.335871058973143732e+01 1.007922431411847697e+01
1.884239238531883302e+03 2.027534897815652570e+01 7.005831028504196922e-01
1.890802970372185882e+03 2.184017130378173732e+01 5.119222214693804673e+00
1.897365956051914281e+03 2.109234105252217972e+01 9.436314716269151859e-01
1.903928192981140910e+03 1.990610516579990019e+01 3.332918916490871908e+00
1.910489678570236947e+03 1.660262534989902505e+01 6.904394696182265534e-01
1.917050410229864838e+03 1.871150952050181715e+01 6.800754198748626855e+00
1.923610385370990798e+03 1.879912236710260132e+01 6.124219301041180508e+00
1.930169601404871628e+03 1.377956705564107587e+01 3.767321913287782209e+00
1.936728055743071764e+03 1.814759753587033941e+01 3.067873922963745059e+00
1.943285745797451227e+03 1.836477140845363465e+01 7.222109387407282810e-01
1.949842668980173812e+03 2.096625003079106975e+01 3.231694221655722288e+00
1.956398822703703672e+03 1.843064315615411530e+01 3.552275117128516513e+00
1.962954204380811916e+03 1.705642396294100749e+01 6.082677636707892077e+00
1.969508811424572059e+03 1.982864051378765069e+01 9.879296507246772663e+00
1.976062641248362297e+03 1.928867412194557218e+01 7.046651989881040912e+00
1.982615691265870964e+03 1.256467788562300925e+01 2.600624990211803045e+00
1.989167958891092667e+03 1.753285975599216329e+01 4.911594353615151398e+00
1.995719441538328510e+03 1.852900961276380087e+01 8.158462314366238033e+00
2.002270136622189739e+03 2.077727615761224200e+01 5.699179904042876998e+00
2.008820041557603190e+03 2.424801353167808315e+01 3.820032463792252031e+00
2.015369153759804249e+03 2.312972016301934275e+01 8.937020373791119354e+00
2.021917470644338209e+03 1.968491243670366941e+01 9.031625547011490340e+00
2.028464989627068462e+03 2.206024466871601319e+01 7.010726502201283239e+00
2.035011708124171491e+03 2.827771520105418546e+01 4.378861388928184439e+00
2.041557623552140512e+03 2.234279827696266452e+01 3.368570021897568267e+00
2.048102733327785245e+03 2.118715053613389188e+01 5.096297243836394486e+00
2.054647034868232822e+03 1.740910553911763614e+01 4.391170448414421834e+00
2.061190525590928701e+03 1.790272551749643526e+01 4.643287661061937577e+00
2.067733202913642344e+03 1.884163013086894267e+01 1.733378640959342576e+00
2.074275064254458357e+03 2.070983834620801645e+01 5.801502517061532416e+00
2.080816107031786487e+03 1.428035014727345065e+01 1.895696779996685066e+00
2.087356328664361627e+03 1.204288606056288025e+01 2.094892864161456814e+00
2.093895726571238356e+03 1.524615849374778875e+01 5.019229016865116577e-01
2.100434298171800037e+03 1.258878183008577345e+01 2.231276311119431810e+00
2.106972040885751085e+03 1.622412230989276694e+01 2.658642044335390864e+00
2.113508952133128787e+03 1.874545119393773973e+01 5.924375150810625712e+00
2.120045029334294668e+03 1.922069715458203021e+01 6.005710737454449166e+00
2.126580269909943127e+03 1.961444586888802633e+01 4.888915492312372990e+00
2.133114671281094616e+03 1.585414124098560329e+01 2.349221750877799053e-01
2.139648230869102008e+03 1.590788144078142352e+01 1.948415856454777106e+00
2.146180946095653326e+03 1.835532966900599305e+01 7.109619453724107530e-01
2.152712814382764464e+03 1.353627003529570949e+01 1.677583885333461922e+00
2.159243833152790103e+03 1.519893443519199394e+01 3.883672858687749141e+00
2.165773999828417800e+03 1.735252801777317089e+01 9.003054278875204375e+00
2.172303311832672080e+03 1.627013681475135698e+01 6.458185004603136825e+00
2.178831766588915343e+03 1.674733011155669615e+01 7.612351420940256297e+00
2.185359361520846960e+03 1.681605938252893395e+01 5.499298314855529668e+00
2.191886094052507360e+03 1.569767006760263328e+01 6.680836611129568503e+00
2.198411961608275760e+03 1.728336701328134239e+01 3.741247361935714721e+00
2.204936961612871983e+03 2.183749091993816194e+01 4.824433925008603907e+00
2.211461091491361458e+03 1.777634351355801101e+01 3.651862795201505918e-01
2.217984348669149313e+03 1.074831113408296446e+01 2.485869410444507821e-02
2.224506730571987191e+03 1.141947286377404325e+01 1.676675087245778073e+00
2.231028234625971891e+03 1.065995402069809472e+01 2.325668649643636066e+00
2.237548858257546271e+03 9.588944894929763763e+00 1.329755650108133125e-02
2.244068598893502440e+03 1.278292914770733901e+01 1.014551169120365692e+00
2.250587453960976291e+03 1.396878771624709259e+01 9.925784088345537270e-01
2.257105420887457058e+03 9.980755651359078939e+00 3.412299315290194812e-01
2.263622497100785040e+03 1.227865588723583912e+01 3.114922652449192420e+00
2.270138680029150692e+03 1.103282781000250168e+01 8.669216484757642505e-01
2.276653967101094167e+03 1.140802331051403939e+01 8.173877054249985008e-01
2.283168355745514418e+03 1.028193286447797306e+01 1.462649902723547335e+00
2.289681843391662369e+03 1.061050065180231172e+01 9.650670944944295115e-02
2.296194427469143193e+03 9.697737733534552262e+00 1.354387846129473161e+00
2.302706105407919495e+03 9.719612495676702935e+00 2.545285476970402527e-01
2.309216874638314493e+03 9.032213194666429246e+00 3.679556384439832684e-01
2.315726732591004293e+03 1.018836022355458582e+01 4.973201316743622868e-01
2.322235676697029703e+03 9.465286655277724392e+00 7.786984925277273817e-02
2.328743704387791240e+03 1.017289803889780408e+01 2.910875116617361869e-01
2.335250813095047306e+03 9.492394851502151454e+00 7.090664249718470202e-01
2.341757000250922829e+03 8.875378212985564730e+00 1.552227297612276402e-01
2.348262263287906080e+03 1.055824167103885003e+01 1.028619781045447823e-01
2.354766599638848220e+03 1.013395920115566362e+01 6.790222937038237205e-02
2.361270006736966934e+03 9.716236251443818972e+00 2.267203237054875586e-01
2.367772482015847345e+03 1.090908093772819498e+01 1.200891714407115174e-01
2.374274022909443374e+03 1.097880184876927601e+01 2.493031554718578846e-01
2.380774626852072743e+03 9.925268404768511132e+00 5.589633764841810404e-01
2.387274291278427427e+03 9.924165595605238366e+00 6.015462119260632790e-01
2.393773013623570478e+03 1.099713286798926859e+01 1.955302425527788657e+00
2.400270791322933292e+03 1.143807907545858171e+01 1.072982857117315447e+00
2.406767621812321522e+03 9.974351419522466955e+00 2.944336216249077154e-02
2.413263502527916444e+03 1.029264046798028964e+01 4.187157365089451133e-01
2.419758430906273134e+03 1.007782974460240233e+01 5.939209275594858894e-01
2.426252404384320471e+03 1.187235823021608283e+01 1.205302202096983244e+00
2.432745420399366594e+03 1.042715196615493412e+01 4.043848225035766575e-01
2.439237476389096173e+03 1.094341310973867820e+01 2.264013820208695016e+00
2.445728569791574500e+03 1.270160324182729283e+01 2.980265242535613091e+00
2.452218698045244309e+03 1.255118386665447794e+01 2.887806011678636153e+00
2.458707858588929867e+03 1.018389914130264629e+01 5.451425477350326787e-01
2.465196048861838335e+03 9.549438200505907304e+00 5.237444864768825425e-02
2.471683266303559776e+03 9.736427896624405776e+00 3.852973963034767024e-01
2.478169508354067148e+03 9.354814972138756346e+00 8.229170421256153389e-01
2.484654772453716760e+03 9.293551844006564977e+00 5.725458644259440177e-03
2.491139056043256460e+03 9.380398202839634436e+00 6.523485883790467454e-01
2.497622356563816084e+03 9.240179083673892180e+00 3.739722919014916158e-01
2.504104671456914275e+03 9.494658234058725554e+00 3.623484977191688827e-01
2.510585998164459852e+03 1.014915341422022976e+01 5.345946529265441782e-01
2.517066334128749077e+03 9.791289890311931643e+00 7.091998537790971113e-01
2.523545676792472477e+03 9.765157337808805238e+00 3.900812311315053904e-01
2.530024023598709846e+03 1.074676022576594825e+01 1.320435294317952923e+00
2.536501371990937969e+03 9.764061640309813939e+00 1.336568036874883347e-01
2.542977719413022442e+03 1.232178011836480991e+01 2.866004151820828127e+00
2.549453063309225854e+03 9.939054484010606316e+00 5.795726681150394910e-01
2.555927401124209609e+03 1.130198654748573261e+01 9.482915506594578048e-01
2.562400730303026648e+03 9.960599337933441433e+00 1.373315366334422194e-01
2.568873048291133273e+03 1.008424964141756064e+01 7.614209503847515492e-01
2.575344352534381414e+03 1.003721683592474534e+01 1.188680841227789386e-01
2.581814640479026821e+03 1.017579477776613750e+01 2.736113326662845679e-01
2.588283909571719505e+03 1.022126953220962342e+01 9.698265111987147691e-02
2.594752157259519208e+03 1.022658104162819015e+01 2.742793272029269147e-01
2.601219380989884030e+03 1.007024084218722848e+01 5.841912113310332444e-02
2.607685578210677249e+03 9.992901303420071102e+00 5.110538764422525304e-01
2.614150746370168235e+03 1.013705251537973595e+01 1.145043392353235490e-01
2.620614882917029718e+03 1.044172645536412247e+01 2.948438590017667948e-01
2.627077985300345063e+03 1.061115776692690993e+01 4.354004052032518501e-01
2.633540050969604636e+03 1.040026372999255244e+01 6.675802129620853620e-01
2.640001077374706256e+03 1.052065423984395665e+01 5.495559222669532673e-01
2.646461061965958834e+03 1.030493097641658906e+01 5.492725867933803130e-01
2.652920002194084191e+03 1.060352619793894391e+01 9.539404510251170421e-02
2.659377895510210692e+03 1.038018101763593748e+01 4.700648811277909900e-01
2.665834739365889163e+03 1.073652420446219935e+01 1.691021773385239513e-01
2.672290531213075610e+03 1.057773657658583843e+01 6.044809823188348474e-01
2.678745268504146679e+03 1.064701721264492562e+01 1.827413500576646754e-01
2.685198948691891928e+03 1.071334830454583731e+01 6.344651206206961547e-01
2.691651569229521101e+03 1.084191278029007499e+01 1.847211507913311124e-01
2.698103127570657307e+03 1.054243337279620008e+01 7.499485865246180438e-01
2.704553621169349753e+03 1.139556065041805510e+01 5.778427320407519829e-02
2.711003047480061014e+03 1.097983339168072092e+01 3.466168377654748056e-01
2.717451403957680668e+03 1.131147613708896316e+01 2.387695178810211871e-03
2.723898688057514846e+03 1.093924382577959697e+01 6.792335916095222359e-01
2.730344897235297140e+03 1.138451542352595069e+01 1.648333430662871635e-01
2.736790028947184055e+03 1.132611874013881526e+01 7.363032369929971566e-01
2.743234080649756379e+03 1.155381366004207067e+01 2.740856561290438975e-01
2.749677049800022814e+03 1.152254018914454470e+01 6.677726204015712597e-01
2.756118933855418618e+03 1.170193216261379021e+01 3.080644813073112331e-01
2.762559730273804689e+03 1.179779457347915006e+01 7.783925511073626069e-01
2.768999436513476212e+03 1.199801015910040469e+01 4.044127257360461414e-01
2.775438050033153559e+03 1.180089667087190719e+01 8.641672374259412592e-01
2.781875568291990021e+03 1.234399556448869362e+01 2.054865031795287678e-01
2.788311988749574539e+03 1.194804585514584616e+01 8.749419693161151201e-01
2.794747308865925788e+03 1.300191778256226982e+01 1.036304606691720309e-01
2.801181526101494001e+03 1.235103112826170779e+01 1.125623538376288479e+00
2.807614637917171876e+03 1.327629683233477209e+01 4.505991687305321847e-02
2.814046641774280488e+03 1.260965028787427222e+01 9.958278383040735093e-01
2.820477535134585651e+03 1.334597900843241902e+01 6.562745480043563617e-02
2.826907315460284281e+03 1.348149909726216933e+01 7.835442717703049453e-01
2.833335980214018491e+03 1.434276759234942666e+01 1.603392086889829926e-01
2.839763526858868772e+03 1.382128116266881790e+01 8.848767009718123688e-01
2.846189952858353081e+03 1.802011872488730759e+01 3.888725133955571067e+00
2.852615255676436846e+03 1.942681428662691090e+01 4.784884548373649515e+00
2.859039432777527509e+03 2.252563300680821001e+01 8.295093419470493501e+00
2.865462481626472254e+03 1.941442740014670676e+01 4.454341752725479608e+00
2.871884399688571648e+03 2.386326959088610167e+01 9.150160478410224840e+00
2.878305184429563724e+03 1.594658038648848475e+01 9.925706130338429745e-02
2.884724833315640808e+03 1.440286520267939707e+01 5.731545809755997922e-01
2.891143343813439969e+03 1.597901429937937579e+01 4.115255530875829848e-01
2.897560713390048022e+03 2.050118920142097423e+01 4.682159195180875422e+00
2.903976939513000616e+03 1.547196010944585964e+01 9.761285807115855917e-01
2.910392019650289512e+03 1.781588346121548483e+01 1.919035887290764464e+00
2.916805951270351670e+03 1.474890068656955577e+01 1.901414996970142823e+00
2.923218731842084253e+03 1.622657134032991877e+01 1.794884436518842108e-01
2.929630358834835533e+03 1.437075975678782136e+01 2.385349694958526001e+00
2.936040829718405348e+03 1.650504731344343057e+01 3.626451351476447371e-01
2.942450141963056012e+03 1.569485614092058157e+01 2.208007838526359734e+00
2.948858293039503678e+03 1.624779303349079029e+01 1.251629898571255950e+00
2.955265280418923339e+03 1.632920178171198700e+01 1.883755089421846662e+00
2.961671101572950647e+03 1.658952378826902674e+01 1.349491033634015125e+00
2.968075753973677365e+03 1.706329256039876086e+01 2.327095640496442464e+00
2.974479235093661373e+03 1.705495567705845161e+01 1.383442974195305375e+00
2.980881542405919845e+03 1.778553720000638450e+01 2.697574009778623605e+00
2.987282673383934707e+03 1.756387078543007618e+01 1.770479376015166473e+00
2.993682625501648999e+03 1.832691018049131415e+01 2.514925535977194926e+00
3.000081396233476880e+03 1.871163852119427418e+01 1.614142465424922790e+00
3.006478983054293167e+03 1.874363505455112744e+01 2.641300775067863427e+00
3.012875383439442885e+03 1.925183099734951142e+01 1.946685703468020279e+00
3.019270594864736267e+03 1.951741069501292358e+01 2.864958454785291764e+00
3.025664614806456484e+03 1.998822618015802277e+01 2.607219105082176469e+00
3.032057440741353730e+03 2.032666760152898178e+01 3.040925439657057083e+00
3.038449070146652048e+03 2.104107497825945572e+01 2.879430477209876216e+00
3.044839500500046597e+03 2.149064205151312379e+01 3.389699399228753407e+00
3.051228729279704567e+03 2.176124804429421289e+01 2.739554799105540894e+00
3.057616753964268355e+03 2.202365979239423410e+01 3.707721131543241455e+00
3.064003572032855118e+03 2.328894082075640881e+01 3.578927252788181690e+00
3.070389180965058586e+03 2.333997916110924820e+01 4.398764583161762332e+00
3.076773578240951792e+03 2.458104917989750149e+01 3.967159026055590232e+00
3.083156761341079800e+03 2.469095867241879461e+01 4.960151005200751584e+00
3.089538727746474251e+03 2.540920519321252158e+01 4.178322819162564983e+00
3.095919474938641997e+03 2.591469279865645703e+01 5.598189129174578227e+00
3.102299000399571923e+03 2.761250909225487860e+01 3.868845157018458991e+00
3.108677301611734947e+03 2.757314829692078817e+01 6.732902685008706811e+00
3.115054376058087200e+03 2.945683997468397308e+01 5.841805136386328812e+00
3.121430221222066848e+03 2.961739540185719122e+01 7.080544436772871819e+00
3.127804834587598179e+03 3.151992445318623481e+01 6.848225093009643771e+00
3.134178213639090245e+03 3.236632530491277748e+01 7.818129176993716456e+00
3.140550355861440039e+03 3.418077535746514428e+01 7.982063510543282447e+00
3.146921258740033863e+03 3.561423380569317487e+01 9.264120965665059160e+00
3.153290919760744600e+03 3.836139175228403531e+01 9.942649914601970451e+00
3.159659336409938078e+03 3.878106952446970013e+01 1.080144197360210612e+01
3.166026506174467613e+03 4.187294229643684673e+01 1.117025077696297330e+01
3.172392426541682198e+03 4.364416839064299580e+01 1.275284847001130650e+01
3.178757094999421042e+03 4.681406346573655242e+01 1.315706851175282921e+01
3.185120509036019939e+03 5.028021484239345540e+01 1.683234113834792112e+01
3.191482666140307629e+03 5.177318591264962322e+01 1.468896022033488080e+01
3.197843563801609434e+03 6.353827950341856479e+01 2.630351768985629590e+01
3.204203199509746810e+03 6.806254913974345300e+01 2.222836346405340180e+01
3.210561570755042339e+03 9.422468624364525169e+01 3.994679530747221463e+01
3.216918675028315192e+03 9.981554635236753370e+01 3.485346352481121102e+01
3.223274509820884305e+03 1.407099176549195647e+02 6.774375605639311004e+01
3.229629072624569744e+03 2.210309661799527134e+02 1.055976433212338321e+02
3.235982360931694075e+03 3.508100092216121766e+02 2.017853178667114378e+02
3.242334372235083265e+03 8.026692964037281399e+02 5.661786698501223327e+02
3.248685104028066689e+03 8.071243288868378158e+02 2.889859463554681724e+02
3.255034553804477127e+03 1.025876076536812889e+03 4.880930484137915073e+02
3.261382719058657131e+03 8.824453683878678021e+02 4.392008497794775508e+02
3.267729597285451746e+03 1.492422082463396464e+03 4.910196569113309693e+02
3.274075185980217157e+03 1.310167157765390584e+03 7.665210603396257056e+02
3.280419482638816589e+03 1.353281681580669783e+03 6.972453921819480911e+02
3.286762484757622133e+03 8.978544759006551885e+02 3.283372582762333423e+02
3.293104189833521104e+03 2.978313237281914780e+02 1.524867146023281634e+02
3.299444595363909229e+03 1.893573142533755060e+02 6.489871068402108278e+01
3.305783698846694733e+03 1.281641533406979647e+02 5.560677319954029940e+01
3.312121497780301524e+03 1.258910057839592014e+02 5.362549310583111151e+01
3.318457989663666922e+03 8.663594096241585873e+01 2.678199358881720471e+01
3.324793171996244837e+03 7.636667282493223752e+01 1.313898236227935712e+01
3.331127042278006229e+03 6.939018176824914974e+01 1.359573679718916495e+01
3.337459598009439105e+03 6.639625850228620152e+01 9.982866463018449821e+00
3.343790836691550794e+03 5.874135111184548919e+01 5.739766457241984199e+00
3.350120755825866127e+03 5.695698691683367088e+01 8.224276950859945146e+00
3.356449352914434712e+03 5.205191317163419740e+01 4.112037992345324966e+00
3.362776625459824572e+03 4.961169546969931332e+01 4.265495241159250384e+00
3.369102570965128052e+03 4.828425134375637384e+01 5.265998116371264359e-01
3.375427186933960002e+03 4.577620366020591547e+01 2.700153229911848030e-01
3.381750470870460958e+03 4.728322580442173972e+01 3.856064722049332261e+00
3.388072420279298058e+03 4.320199623058056204e+01 1.256320903462011529e+00
3.394393032665663213e+03 4.543663703803493092e+01 6.416773242138340549e+00
3.400712305535275391e+03 4.279119844857399357e+01 4.471424821314428755e+00
3.407030236394383337e+03 4.557430568371854918e+01 9.250475120477354096e+00
3.413346822749767853e+03 4.304613991681581808e+01 7.868872908407730904e+00
3.419662062108734517e+03 4.715199139105085635e+01 1.409439793991979428e+01
3.425975951979126876e+03 4.335919260905303929e+01 1.074037850069005628e+01
3.432288489869315072e+03 4.931111046298862277e+01 1.844991176735594252e+01
3.438599673288208578e+03 4.525906659500111573e+01 1.453021899243092818e+01
3.444909499745246649e+03 5.171372752322631783e+01 2.261618355313044759e+01
3.451217966750404685e+03 4.825190194086775364e+01 1.947701295454094250e+01
3.457525071814198327e+03 6.054617410529844079e+01 3.308031770577326114e+01
3.463830812447677545e+03 5.352429116366235462e+01 2.621641815882033200e+01
3.470135186162429818e+03 8.587320953081665209e+01 5.974287438459163724e+01
3.476438190470583322e+03 6.106771186068694135e+01 3.484326161554976409e+01
3.482739822884810565e+03 1.327315104394608625e+02 1.078285183465992958e+02
3.489040080918316562e+03 4.636537436870656137e+01 2.067528299160768412e+01
3.495338962084857485e+03 1.337180357016114272e+02 1.089615281438313019e+02
3.501636463898727015e+03 7.082028885933740980e+01 4.496433187599308923e+01
3.507932583874767715e+03 4.171525381011389300e+02 3.925053878814438804e+02
3.514227319528361022e+03 5.163071546660064541e+02 4.893518956521228915e+02
3.520520668375443620e+03 1.726285669823575290e+03 1.700446336487213102e+03
3.526812627932491523e+03 1.509702339316488633e+03 1.479863381310070963e+03
3.533103195716532355e+03 1.030342312699507829e+03 1.005632899621192109e+03
3.539392369245142618e+03 7.771603191841193166e+02 7.335611246863160204e+02
3.545680146036449969e+03 1.546391400383166967e+02 1.133853931364208876e+02
3.551966523609130945e+03 1.835423130901698414e+02 9.289513096463549857e+01
3.558251499482418239e+03 9.179928427422038340e+01 6.569489703630857491e+00
3.564535071176092060e+03 2.016675903814768560e+02 1.605072601131877263e+01
3.570817236210491501e+03 1.219210992423011817e+02 1.279402472010795577e+01
3.577097992106509082e+03 1.910389455748678529e+02 3.386991329008694152e+00
3.583377336385592116e+03 1.052176717814819256e+02 9.508211562806472728e+00
3.589655266569747710e+03 6.798075720879434414e+01 3.571966202241330990e+01
3.595931780181538670e+03 5.479916414256726398e+01 1.351039254429272773e+01
3.602206874744087600e+03 4.820170421185789422e+01 2.497398383980872794e+01
3.608480547781075984e+03 4.187908380857552970e+01 1.663180446238361299e+01
3.614752796816750561e+03 4.041593874559710287e+01 2.115147268740989617e+01
3.621023619375914677e+03 3.572012940894661170e+01 1.428951026183421114e+01
3.627293012983938752e+03 3.703792941307739994e+01 1.813737114873152478e+01
3.633560975166752542e+03 3.251597604959056298e+01 1.392434413127604564e+01
3.639827503450854238e+03 3.363753438282625297e+01 1.606191590581802586e+01
3.646092595363308646e+03 2.837078404928159969e+01 1.152776120192400455e+01
3.652356248431743552e+03 3.019194490358228222e+01 1.406881169256369191e+01
3.658618460184358355e+03 2.544124095559348930e+01 9.792769911062423560e+00
3.664879228149919072e+03 2.820634945384233205e+01 1.300576730068720899e+01
3.671138549857761973e+03 2.423498401632087251e+01 9.396193611573044890e+00
3.677396422837793580e+03 2.549477680664911361e+01 1.113885150802929580e+01
3.683652844620492942e+03 2.277535081645505954e+01 8.768842276654797985e+00
3.689907812736911183e+03 2.354771739287352261e+01 9.858250382907122855e+00
3.696161324718674223e+03 2.184736306547365103e+01 8.483652756979473963e+00
3.702413378097982786e+03 2.201435539661438412e+01 8.780505030486937201e+00
3.708663970407609668e+03 2.030768966190990454e+01 7.535983735813294615e+00
3.714913099180908375e+03 2.073689058518758088e+01 8.166898473857903795e+00
3.721160761951808126e+03 1.953058857251339475e+01 7.228196040465100225e+00
3.727406956254816578e+03 1.972200992769170114e+01 7.526691911300985360e+00
3.733651679625021643e+03 1.851749134428496646e+01 6.671063772930620139e+00
3.739894929598090584e+03 1.867951058628979055e+01 6.959831248626277223e+00
3.746136703710273196e+03 1.761298728634726629e+01 6.176587922009750820e+00
3.752376999498401347e+03 1.775031481952534307e+01 6.403844591504098460e+00
3.758615814499890348e+03 1.680183061815949230e+01 5.770457693073522520e+00
3.764853146252739407e+03 1.697134609649491566e+01 6.026162392547948166e+00
3.771088992295532989e+03 1.613617139864578220e+01 5.471804531368921864e+00
3.777323350167443095e+03 1.627269019819380702e+01 5.668622505632162856e+00
3.783556217408228804e+03 1.537424075111374577e+01 5.028443473585923584e+00
3.789787591558234453e+03 1.552581807239315559e+01 5.247685922003812564e+00
3.796017470158398737e+03 1.483460988306400807e+01 4.710629330774970036e+00
3.802245850750246063e+03 1.492470547931972646e+01 4.931416508945581256e+00
3.808472730875893376e+03 1.423558143467686499e+01 4.441416803581931916e+00
3.814698108078050609e+03 1.435439558147250949e+01 4.660890435061168624e+00
3.820921979900020688e+03 1.376287430989467708e+01 4.249527737112551051e+00
3.827144343885699072e+03 1.385980915873506980e+01 4.397881380426978737e+00
3.833365197579578307e+03 1.327491036103987554e+01 3.995861654554339282e+00
3.839584538526745291e+03 1.333486309215798826e+01 4.207032315855523841e+00
3.845802364272884006e+03 1.281986579408782134e+01 3.735310182772887622e+00
3.852018672364279155e+03 1.291621439080329026e+01 3.932981506911896297e+00
3.858233460347809796e+03 1.242076264829096921e+01 3.593831471499948194e+00
3.864446725770957983e+03 1.253819405739043091e+01 3.792369171935384031e+00
3.870658466181806034e+03 1.198789871876091695e+01 3.399662951359137431e+00
3.876868679129036991e+03 1.212789007541919162e+01 3.620902957140384792e+00
3.883077362161938254e+03 1.172399759044896328e+01 3.347039171965836779e+00
3.889284512830401582e+03 1.176653442305523356e+01 3.490215029784901724e+00
3.895490128684918545e+03 1.129325652986070949e+01 3.086140438816490139e+00
3.901694207276592351e+03 1.138463918945886277e+01 3.256178354601466651e+00
3.907896746157130110e+03 1.094795755882089239e+01 2.992141668013609479e+00
3.914097742878847384e+03 1.106741897886138304e+01 3.095123681518741066e+00
3.920297194994666825e+03 1.065333615726727245e+01 2.881632065357306427e+00
3.926495100058121352e+03 1.073672156607851846e+01 2.953015704513861639e+00
3.932691455623356887e+03 1.034322772906719479e+01 2.769017224794244392e+00
3.938886259245126439e+03 1.046007355983165787e+01 2.804132984665705930e+00
3.945079508478797379e+03 1.012281513406477984e+01 2.596042395011671999e+00
3.951271200880352808e+03 1.017933822848913827e+01 2.731753056857380013e+00
3.957461334006385641e+03 9.855830313559099665e+00 2.502676373006528898e+00
3.963649905414107707e+03 9.864833191687843339e+00 2.667480175420690713e+00
3.969836912661347014e+03 9.783776484637080273e+00 2.221291415827008286e+00
3.976022353306545028e+03 9.594960830715862699e+00 2.591205488662352341e+00
3.982206224908768036e+03 9.830944616389682977e+00 1.879873573448110680e+00
3.988388525027693959e+03 9.435367814152613164e+00 2.433170848109775797e+00
3.994569251223626452e+03 9.419576644644635621e+00 2.026615201554446521e+00
4.000748401057488081e+03 9.092169075525873723e+00 2.510764355974608897e+00
4.006925972090824416e+03 8.948647696625119607e+00 2.170693700001992354e+00
4.013101961885803576e+03 9.032427423404914890e+00 2.243887471513794196e+00
4.019276368005215772e+03 8.747169773074821464e+00 2.043255249851741340e+00
4.025449188012480136e+03 9.141172681106175091e+00 1.893773123548546877e+00
4.031620419471638343e+03 8.702622486574604466e+00 1.934565890275127487e+00
4.037790059947360078e+03 8.608271507281749280e+00 2.148155318532673608e+00
4.043958107004943940e+03 8.397530353342482101e+00 1.875686692503782727e+00
4.050124558210316081e+03 8.326346654962199167e+00 2.069049437983418116e+00
4.056289411130031112e+03 8.283352765370334936e+00 1.742469329313681037e+00
4.062452663331278472e+03 8.262712179188937967e+00 1.963469583386971529e+00
4.068614312381874697e+03 8.003046598980068538e+00 1.714645684258659930e+00
4.074774355850272968e+03 8.143787023649947443e+00 1.908007661996407478e+00
4.080932791305555838e+03 7.816757543147930143e+00 1.615597968303405629e+00
4.087089616317444779e+03 8.020270357842957054e+00 1.800799952844321705e+00
4.093244828456293817e+03 7.697163516987824750e+00 1.569468477832344444e+00
4.099398425293094988e+03 7.979149448971631031e+00 2.035137283427182364e+00
4.105550404399475156e+03 7.009936375642218387e+00 1.112297117910942212e+00
4.111700763347705106e+03 8.690402246358580385e+00 2.656594598346441849e+00
4.117849499710687269e+03 7.180186993273431462e+00 1.460736727208982622e+00
4.123996611061971635e+03 8.590221789693874399e+00 2.836817948268402390e+00
4.130142094975746659e+03 7.871497206847918982e+00 2.120805380451963096e+00
4.136285949026840171e+03 1.065654475138131119e+01 5.006502326101963440e+00
4.142428170790727563e+03 6.255517922546633969e+00 6.523403700595848953e-01
4.148568757843527237e+03 7.646898476753221985e+00 1.997846690617996135e+00
4.154707707761999700e+03 8.056612920346687190e+00 2.575357874306395622e+00
4.160845018123556656e+03 1.084923841716615200e+01 5.319866678281837125e+00
4.166980686506251004e+03 1.033807691709740517e+01 4.937756823930636862e+00
4.173114710488790479e+03 8.922261365983683135e+00 3.474448888376083122e+00
4.179247087650524918e+03 4.868129673824464376e+00 4.500603740431601274e-01
4.185377815571458086e+03 8.551483654691464764e+00 3.167773397855080386e+00
4.191506891832242218e+03 6.735937104239434703e+00 1.499325041352780996e+00
4.197634314014186202e+03 7.108059207511645106e+00 1.859969955105914785e+00
